subID	block	trial_number	target	distractor	trial_type	item_type	error_type	error_subtype	screen_side	response_screen	rt	correct	mouse_final_x	mouse_final_y
sub_36	B1	1	chapelet	champignon	test	no_accent	nasalization	@_a	2	0	2000.0633	0	1.146109e+03	1.951523e+02
sub_36	B1	2	randonnée	pèlerin	filler	accent	nasalization	@_a	1	1	939.7693	1	3.530938e+02	1.622148e+02
sub_36	B1	3	lampadaire	pâturage	filler	accent	nasalization	@_a	1	1	1396.8646	1	3.593203e+02	2.060352e+02
sub_36	B1	4	soupirant	pesanteur	filler	no_accent	rounding	y_u	2	2	1029.9972	1	1.017344e+03	2.007773e+02
sub_36	B1	5	champignon	chapelet	test	accent	nasalization	@_a	2	2	1246.2096	1	1.050812e+03	1.961211e+02
sub_36	B1	6	chansonnette	perroquet	filler	accent	nasalization	@_a	2	2	1924.5417	1	1.059648e+03	1.889219e+02
sub_36	B1	7	ralenti	randonnée	test	no_accent	nasalization	@_a	2	2	1276.997	1	1.092875e+03	1.980938e+02
sub_36	B1	8	pissenlit	bibelot	test	no_accent	VOT	b_p	1	1	1655.4825	1	3.629609e+02	1.933633e+02
sub_36	B1	9	baluchon	chapelet	filler	accent	VOT	b_p	1	1	1355.9719	1	3.736602e+02	1.953320e+02
sub_36	B1	10	seigneurie	ceinturon	test	no_accent	nasalization	5_E	2	2	1124.8178	1	1.086160e+03	1.728984e+02
sub_36	B1	11	gâterie	potiron	filler	accent	VOT	g_k	1	1	1089.3499	1	3.642344e+02	1.730508e+02
sub_36	B1	12	baisemain	laverie	filler	accent	VOT	b_p	1	1	1150.9742	1	3.300703e+02	1.906641e+02
sub_36	B1	13	baratin	palissade	test	accent	VOT	b_p	1	1	1966.1996	1	3.301289e+02	1.768398e+02
sub_36	B1	14	betterave	pèlerin	test	accent	VOT	b_p	1	1	829.9946	1	3.709180e+02	1.921523e+02
sub_36	B1	15	canapé	gâterie	test	no_accent	VOT	g_k	1	1	649.7526	1	3.790898e+02	2.225742e+02
sub_36	B1	16	châtiment	baratin	filler	no_accent	nasalization	@_a	1	1	626.762	1	3.709180e+02	2.010625e+02
sub_36	B1	17	bibelot	seigneurie	filler	accent	VOT	b_p	2	2	785.081	1	1.082160e+03	1.840117e+02
sub_36	B1	18	lavabo	betterave	filler	no_accent	nasalization	@_a	1	1	684.3142	1	3.907148e+02	2.097188e+02
sub_36	B1	19	confiture	coqueluche	test	accent	nasalization	X_O	1	1	1206.965	1	3.484102e+02	2.278008e+02
sub_36	B1	20	chandeleur	patelin	filler	accent	nasalization	@_a	2	2	896.1747	1	1.113383e+03	1.780391e+02
sub_36	B1	21	palissade	baratin	test	no_accent	VOT	b_p	2	2	1084.5337	1	1.113688e+03	1.767656e+02
sub_36	B1	22	chapiteau	chansonnette	test	no_accent	nasalization	@_a	2	2	851.1789	1	1.067336e+03	1.795547e+02
sub_36	B1	23	patelin	chandeleur	filler	no_accent	VOT	b_p	2	2	1031.2846	1	1.068590e+03	2.003203e+02
sub_36	B1	24	potiron	gâterie	filler	no_accent	rounding	2_o	2	2	897.4554	1	1.033426e+03	2.010039e+02
sub_36	B1	25	bâtiment	patelin	test	accent	VOT	b_p	1	1	829.9494	1	3.627500e+02	1.971211e+02
sub_36	B1	26	pourriture	boucherie	test	no_accent	VOT	b_p	1	1	808.1445	1	3.498672e+02	2.097188e+02
sub_36	B1	27	supérette	soupirant	test	accent	rounding	y_u	2	1	665.2701	0	3.716602e+02	1.795234e+02
sub_36	B1	28	laverie	baisemain	filler	no_accent	nasalization	@_a	1	1	1155.3028	1	3.736328e+02	1.951055e+02
sub_36	B1	29	ceinturon	passerelle	filler	accent	nasalization	5_E	1	1	1370.1259	1	3.998555e+02	1.918633e+02
sub_36	B1	30	passerelle	ceinturon	filler	no_accent	nasalization	@_a	2	2	943.21	1	1.060906e+03	1.928633e+02
sub_36	B1	31	boucherie	pourriture	test	accent	VOT	b_p	2	2	841.8605	1	1.068105e+03	2.104336e+02
sub_36	B1	32	pendentif	canapé	filler	accent	nasalization	@_a	1	1	839.6638	1	3.768594e+02	2.126914e+02
sub_36	B1	33	paperasse	penderie	test	no_accent	nasalization	@_a	1	1	773.5727	1	4.250781e+02	1.914102e+02
sub_36	B1	34	pâturage	baluchon	test	no_accent	VOT	b_p	2	2	897.6518	1	1.046797e+03	1.750703e+02
sub_36	B1	35	coqueluche	confiture	test	no_accent	nasalization	X_O	1	1	897.9342	1	3.590352e+02	1.797539e+02
sub_36	B1	36	perroquet	baisemain	test	no_accent	VOT	b_p	1	1	840.9346	1	3.523516e+02	1.995781e+02
sub_36	B1	37	pesanteur	potiron	test	accent	rounding	2_o	1	1	1045.1615	1	3.736328e+02	1.515586e+02
sub_36	B1	38	pèlerin	betterave	test	no_accent	VOT	b_p	1	1	1042.8072	1	3.461523e+02	1.738125e+02
sub_36	B1	39	penderie	paperasse	test	accent	nasalization	@_a	2	2	919.0273	1	1.044566e+03	1.716133e+02
sub_36	B1	40	lendemain	palissade	filler	accent	nasalization	@_a	2	2	942.6473	1	1.074305e+03	2.216328e+02
sub_36	B2	1	lampadaire	lavabo	test	accent	nasalization	@_a	1	1	1042.6824	1	3.439531e+02	1.864375e+02
sub_36	B2	2	randonnée	ralenti	test	accent	nasalization	@_a	2	2	1010.3789	1	1.042566e+03	2.010625e+02
sub_36	B2	3	soupirant	supérette	test	no_accent	rounding	y_u	1	1	1357.5209	1	4.033125e+02	1.762969e+02
sub_36	B2	4	gâterie	canapé	test	accent	VOT	g_k	2	2	854.0926	1	1.033168e+03	2.176602e+02
sub_36	B2	5	chansonnette	chapiteau	test	accent	nasalization	@_a	2	2	1640.7085	1	1.048996e+03	1.889062e+02
sub_36	B2	6	bibelot	pissenlit	test	accent	VOT	b_p	1	1	897.3631	1	4.055391e+02	1.847227e+02
sub_36	B2	7	confiture	pissenlit	filler	accent	nasalization	X_O	2	2	1255.5963	1	1.050766e+03	1.970938e+02
sub_36	B2	8	laverie	lendemain	test	no_accent	nasalization	@_a	2	2	965.5007	1	1.098273e+03	1.815234e+02
sub_36	B2	9	ralenti	bâtiment	filler	no_accent	nasalization	@_a	1	1	1348.603	1	4.139688e+02	2.201172e+02
sub_36	B2	10	boucherie	coqueluche	filler	accent	VOT	b_p	1	1	930.2608	1	3.498672e+02	1.995781e+02
sub_36	B2	11	potiron	pesanteur	test	no_accent	rounding	2_o	2	2	954.1297	1	1.083703e+03	1.716406e+02
sub_36	B2	12	champignon	paperasse	filler	accent	nasalization	@_a	2	2	751.97	1	1.066105e+03	1.800391e+02
sub_36	B2	13	baisemain	perroquet	test	accent	VOT	b_p	1	1	1145.3055	1	3.694336e+02	2.013203e+02
sub_36	B2	14	lavabo	lampadaire	test	no_accent	nasalization	@_a	1	1	808.5584	1	NA	1.953789e+02
sub_36	B2	15	ceinturon	seigneurie	test	accent	nasalization	5_E	1	1	1189.1599	1	3.813164e+02	1.866953e+02
sub_36	B2	16	chapiteau	penderie	filler	no_accent	nasalization	@_a	2	2	1190.5568	1	1.081445e+03	1.988359e+02
sub_36	B2	17	chandeleur	châtiment	test	accent	nasalization	@_a	2	2	975.3135	1	1.063621e+03	1.958633e+02
sub_36	B2	18	pissenlit	confiture	filler	no_accent	VOT	b_p	1	1	920.1349	1	4.043398e+02	1.586992e+02
sub_36	B2	19	baratin	châtiment	filler	accent	VOT	b_p	2	2	887.282	1	1.051996e+03	1.830117e+02
sub_36	B2	20	pâturage	lampadaire	filler	no_accent	VOT	b_p	1	1	807.8174	1	4.167109e+02	1.985781e+02
sub_36	B2	21	chapelet	baluchon	filler	no_accent	nasalization	@_a	1	1	1026.5503	1	3.263555e+02	1.936367e+02
sub_36	B2	22	supérette	pourriture	filler	accent	rounding	y_u	2	2	821.0711	1	1.048797e+03	1.812695e+02
sub_36	B2	23	châtiment	chandeleur	test	no_accent	nasalization	@_a	1	1	1156.4879	1	3.855156e+02	1.787812e+02
sub_36	B2	24	canapé	pendentif	filler	no_accent	VOT	g_k	2	2	1111.6145	1	1.097785e+03	1.792695e+02
sub_36	B2	25	baluchon	pâturage	test	accent	VOT	b_p	2	2	1190.4689	1	1.052480e+03	1.886641e+02
sub_36	B2	26	passerelle	pendentif	test	no_accent	nasalization	@_a	2	2	909.5332	1	1.069562e+03	1.743242e+02
sub_36	B2	27	patelin	bâtiment	test	no_accent	VOT	b_p	2	2	997.3116	1	1.089875e+03	1.784961e+02
sub_36	B2	28	pesanteur	soupirant	filler	accent	rounding	2_o	1	1	875.5892	1	3.879727e+02	1.993203e+02
sub_36	B2	29	coqueluche	boucherie	filler	no_accent	nasalization	X_O	2	2	577.4971	1	1.018086e+03	1.837227e+02
sub_36	B2	30	pourriture	supérette	filler	no_accent	VOT	b_p	1	1	810.7423	1	4.213945e+02	1.820117e+02
sub_36	B2	31	paperasse	champignon	filler	no_accent	nasalization	@_a	2	2	773.4208	1	1.047055e+03	1.768398e+02
sub_36	B2	32	palissade	lendemain	filler	no_accent	VOT	b_p	2	2	705.1935	1	1.049539e+03	2.144336e+02
sub_36	B2	33	bâtiment	ralenti	filler	accent	VOT	b_p	2	2	616.9627	1	1.077246e+03	1.678984e+02
sub_36	B2	34	seigneurie	bibelot	filler	no_accent	nasalization	5_E	1	1	661.1603	1	4.102812e+02	1.839805e+02
sub_36	B2	35	perroquet	chansonnette	filler	no_accent	VOT	b_p	2	2	763.1084	1	1.082445e+03	1.973516e+02
sub_36	B2	36	pèlerin	randonnée	filler	no_accent	VOT	b_p	1	1	727.7823	1	3.322969e+02	1.763242e+02
sub_36	B2	37	pendentif	passerelle	test	accent	nasalization	@_a	1	1	666.6884	1	3.434102e+02	1.805234e+02
sub_36	B2	38	betterave	lavabo	filler	accent	VOT	b_p	1	1	739.6846	1	4.070547e+02	1.859805e+02
sub_36	B2	39	lendemain	laverie	test	accent	nasalization	@_a	2	2	1587.0922	1	1.088875e+03	1.884375e+02
sub_36	B2	40	penderie	chapiteau	filler	accent	nasalization	@_a	2	2	873.4559	1	1.071078e+03	2.112031e+02
sub_36	B3	1	betterave	lavabo	filler	accent	VOT	b_p	1	1	1638.4493	1	3.508672e+02	1.864961e+02
sub_36	B3	2	baratin	palissade	test	accent	VOT	b_p	1	1	729.2853	1	3.686914e+02	1.567578e+02
sub_36	B3	3	chansonnette	perroquet	filler	accent	nasalization	@_a	2	2	590.4083	1	1.035168e+03	1.953789e+02
sub_36	B3	4	lendemain	palissade	filler	accent	nasalization	@_a	2	2	784.9999	1	1.064621e+03	1.869219e+02
sub_36	B3	5	coqueluche	boucherie	filler	no_accent	nasalization	X_O	2	2	841.0715	1	1.068336e+03	1.899219e+02
sub_36	B3	6	ralenti	randonnée	test	no_accent	nasalization	@_a	2	2	1628.4933	1	1.077762e+03	1.879531e+02
sub_36	B3	7	champignon	chapelet	test	accent	nasalization	@_a	2	2	1244.7268	1	1.092816e+03	1.864648e+02
sub_36	B3	8	pissenlit	bibelot	test	no_accent	VOT	b_p	1	1	727.1571	1	4.090273e+02	1.661562e+02
sub_36	B3	9	châtiment	chandeleur	test	no_accent	nasalization	@_a	1	1	1402.4888	1	4.147383e+02	1.824961e+02
sub_36	B3	10	baisemain	perroquet	test	accent	VOT	b_p	1	1	931.7361	1	4.125117e+02	2.005508e+02
sub_36	B3	11	seigneurie	bibelot	filler	no_accent	nasalization	5_E	1	1	951.377	1	4.174531e+02	1.817539e+02
sub_36	B3	12	potiron	gâterie	filler	no_accent	rounding	2_o	2	2	827.0182	1	1.070047e+03	1.745820e+02
sub_36	B3	13	chapiteau	chansonnette	test	no_accent	nasalization	@_a	2	2	728.9174	1	1.049508e+03	2.010625e+02
sub_36	B3	14	passerelle	ceinturon	filler	no_accent	nasalization	@_a	2	2	813.0098	1	1.067336e+03	1.807383e+02
sub_36	B3	15	patelin	chandeleur	filler	no_accent	VOT	b_p	2	2	901.6643	1	1.047055e+03	2.288008e+02
sub_36	B3	16	confiture	coqueluche	test	accent	nasalization	X_O	1	1	841.5187	1	3.835469e+02	2.035508e+02
sub_36	B3	17	bibelot	pissenlit	test	accent	VOT	b_p	1	1	766.0854	1	3.451797e+02	1.864648e+02
sub_36	B3	18	randonnée	ralenti	test	accent	nasalization	@_a	2	2	1232.6984	1	1.036883e+03	1.795234e+02
sub_36	B3	19	bâtiment	ralenti	filler	accent	VOT	b_p	2	2	894.3681	1	1.017570e+03	2.052617e+02
sub_36	B3	20	penderie	paperasse	test	accent	nasalization	@_a	2	2	886.3837	1	1.055223e+03	1.649297e+02
sub_36	B3	21	boucherie	coqueluche	filler	accent	VOT	b_p	1	1	841.5496	1	3.736328e+02	1.733555e+02
sub_36	B3	22	laverie	baisemain	filler	no_accent	nasalization	@_a	1	1	930.869	1	3.392383e+02	1.866641e+02
sub_36	B3	23	pâturage	lampadaire	filler	no_accent	VOT	b_p	1	1	1909.974	1	3.988555e+02	2.023203e+02
sub_36	B3	24	chapelet	baluchon	filler	no_accent	nasalization	@_a	1	1	1218.0428	1	4.194531e+02	1.923789e+02
sub_36	B3	25	perroquet	chansonnette	filler	no_accent	VOT	b_p	2	2	772.3814	1	1.089418e+03	1.455898e+02
sub_36	B3	26	chandeleur	patelin	filler	accent	nasalization	@_a	2	2	772.7525	1	1.069820e+03	1.901797e+02
sub_36	B3	27	pourriture	supérette	filler	no_accent	VOT	b_p	1	1	827.7239	1	3.835469e+02	1.807539e+02
sub_36	B3	28	pèlerin	betterave	test	no_accent	VOT	b_p	1	1	1166.9116	1	4.226523e+02	2.191445e+02
sub_36	B3	29	baluchon	chapelet	filler	accent	VOT	b_p	1	1	836.632	1	3.959141e+02	1.847227e+02
sub_36	B3	30	soupirant	pesanteur	filler	no_accent	rounding	y_u	2	2	1808.1939	1	1.102957e+03	1.985781e+02
sub_36	B3	31	pendentif	canapé	filler	accent	nasalization	@_a	1	1	904.0072	1	3.971719e+02	2.000938e+02
sub_36	B3	32	ceinturon	seigneurie	test	accent	nasalization	5_E	1	1	1134.4193	1	3.640078e+02	1.688984e+02
sub_36	B3	33	palissade	lendemain	filler	no_accent	VOT	b_p	2	2	729.9853	1	1.067305e+03	1.695234e+02
sub_36	B3	34	canapé	gâterie	test	no_accent	VOT	g_k	1	1	828.6182	1	3.672070e+02	1.770703e+02
sub_36	B3	35	supérette	pourriture	filler	accent	rounding	y_u	2	2	638.9517	1	1.056938e+03	1.701250e+02
sub_36	B3	36	pesanteur	soupirant	filler	accent	rounding	2_o	1	1	830.8567	1	3.501211e+02	1.889531e+02
sub_36	B3	37	paperasse	penderie	test	no_accent	nasalization	@_a	1	1	863.6344	1	3.516094e+02	1.782969e+02
sub_36	B3	38	gâterie	canapé	test	accent	VOT	g_k	2	2	548.3775	1	1.040109e+03	2.149492e+02
sub_36	B3	39	lavabo	lampadaire	test	no_accent	nasalization	@_a	1	1	600.3281	1	4.063125e+02	1.862383e+02
sub_36	B3	40	lampadaire	lavabo	test	accent	nasalization	@_a	1	1	999.271	1	3.966562e+02	1.658711e+02
sub_36	B4	1	châtiment	baratin	filler	no_accent	nasalization	@_a	1	1	768.2923	1	3.931992e+02	1.862109e+02
sub_36	B4	2	passerelle	pendentif	test	no_accent	nasalization	@_a	2	2	729.3911	1	1.048281e+03	1.973516e+02
sub_36	B4	3	coqueluche	confiture	test	no_accent	nasalization	X_O	1	1	853.8873	1	3.597773e+02	1.671406e+02
sub_36	B4	4	pissenlit	confiture	filler	no_accent	VOT	b_p	1	1	1482.8227	1	4.254258e+02	2.000938e+02
sub_36	B4	5	potiron	pesanteur	test	no_accent	rounding	2_o	2	2	740.3212	1	1.066848e+03	2.181172e+02
sub_36	B4	6	ralenti	bâtiment	filler	no_accent	nasalization	@_a	1	1	706.0465	1	4.251367e+02	1.852695e+02
sub_36	B4	7	boucherie	pourriture	test	accent	VOT	b_p	2	2	875.456	1	1.029715e+03	1.428750e+02
sub_36	B4	8	chandeleur	châtiment	test	accent	nasalization	@_a	2	2	752.3627	1	1.016828e+03	1.931523e+02
sub_36	B4	9	pendentif	passerelle	test	accent	nasalization	@_a	1	1	969.3019	1	3.471211e+02	1.948945e+02
sub_36	B4	10	pourriture	boucherie	test	no_accent	VOT	b_p	1	1	862.5908	1	3.969141e+02	1.685977e+02
sub_36	B4	11	bibelot	seigneurie	filler	accent	VOT	b_p	2	2	749.5619	1	1.062621e+03	1.802695e+02
sub_36	B4	12	soupirant	supérette	test	no_accent	rounding	y_u	1	1	1313.977	1	4.095391e+02	1.976094e+02
sub_36	B4	13	bâtiment	patelin	test	accent	VOT	b_p	1	1	807.5146	1	3.798320e+02	1.718398e+02
sub_36	B4	14	patelin	bâtiment	test	no_accent	VOT	b_p	2	2	1431.1943	1	1.088387e+03	1.852109e+02
sub_36	B4	15	chapiteau	penderie	filler	no_accent	nasalization	@_a	2	2	1280.1699	1	1.096559e+03	1.874219e+02
sub_36	B4	16	penderie	chapiteau	filler	accent	nasalization	@_a	2	2	773.8406	1	1.073789e+03	1.888633e+02
sub_36	B4	17	chapelet	champignon	test	no_accent	nasalization	@_a	2	2	1137.7971	1	1.031516e+03	2.211445e+02
sub_36	B4	18	baluchon	pâturage	test	accent	VOT	b_p	2	2	785.4919	1	1.073020e+03	1.899219e+02
sub_36	B4	19	chansonnette	chapiteau	test	accent	nasalization	@_a	2	2	1201.0747	1	1.034656e+03	NA
sub_36	B4	20	confiture	pissenlit	filler	accent	nasalization	X_O	2	2	773.7383	1	1.094586e+03	1.898945e+02
sub_36	B4	21	baisemain	laverie	filler	accent	VOT	b_p	1	1	961.7636	1	3.270977e+02	1.757812e+02
sub_36	B4	22	baratin	châtiment	filler	accent	VOT	b_p	2	2	999.8472	1	1.099758e+03	1.807539e+02
sub_36	B4	23	palissade	baratin	test	no_accent	VOT	b_p	2	2	751.1214	1	1.076734e+03	1.847227e+02
sub_36	B4	24	randonnée	pèlerin	filler	accent	nasalization	@_a	1	1	863.9119	1	3.775742e+02	1.874375e+02
sub_36	B4	25	seigneurie	ceinturon	test	no_accent	nasalization	5_E	2	2	1069.1499	1	1.047539e+03	1.805234e+02
sub_36	B4	26	canapé	pendentif	filler	no_accent	VOT	g_k	2	2	627.7262	1	1.049766e+03	2.102031e+02
sub_36	B4	27	pesanteur	potiron	test	accent	rounding	2_o	1	1	998.8507	1	3.503516e+02	1.693398e+02
sub_36	B4	28	betterave	pèlerin	test	accent	VOT	b_p	1	1	875.04	1	3.825469e+02	1.936094e+02
sub_36	B4	29	pâturage	baluchon	test	no_accent	VOT	b_p	2	2	872.0591	1	1.092586e+03	1.787812e+02
sub_36	B4	30	gâterie	potiron	filler	accent	VOT	g_k	1	1	706.2668	1	3.535781e+02	1.918945e+02
sub_36	B4	31	lendemain	laverie	test	accent	nasalization	@_a	2	2	565.4653	1	1.045539e+03	1.648984e+02
sub_36	B4	32	champignon	paperasse	filler	accent	nasalization	@_a	2	2	670.8769	1	1.028969e+03	1.882109e+02
sub_36	B4	33	laverie	lendemain	test	no_accent	nasalization	@_a	2	2	841.3684	1	1.031941e+03	1.998359e+02
sub_36	B4	34	pèlerin	randonnée	filler	no_accent	VOT	b_p	1	1	716.3441	1	3.924570e+02	1.711250e+02
sub_36	B4	35	ceinturon	passerelle	filler	accent	nasalization	5_E	1	1	1055.9092	1	3.837734e+02	2.280312e+02
sub_36	B4	36	supérette	soupirant	test	accent	rounding	y_u	2	2	695.3398	1	1.058195e+03	1.602148e+02
sub_36	B4	37	paperasse	champignon	filler	no_accent	nasalization	@_a	2	2	648.6092	1	1.061648e+03	1.950938e+02
sub_36	B4	38	lampadaire	pâturage	filler	accent	nasalization	@_a	1	1	774.7223	1	3.931992e+02	2.018047e+02
sub_36	B4	39	lavabo	betterave	filler	no_accent	nasalization	@_a	1	1	683.961	1	4.040859e+02	2.015781e+02
sub_36	B4	40	perroquet	baisemain	test	no_accent	VOT	b_p	1	1	819.0583	1	4.191680e+02	1.666406e+02
