subID	block	trial_number	target	distractor	trial_type	item_type	error_type	error_subtype	screen_side	response_screen	rt	correct	mouse_final_x	mouse_final_y
sub_18	B1	1	châtiment	chandeleur	test	no_accent	nasalization	@_a	1	0	2000.0611	0	3.634922e+02	1.800117e+02
sub_18	B1	2	ralenti	bâtiment	filler	no_accent	nasalization	@_a	2	0	2000.058	0	1.056707e+03	1.859062e+02
sub_18	B1	3	chandeleur	châtiment	test	accent	nasalization	@_a	1	1	1302.8393	1	3.783477e+02	1.743555e+02
sub_18	B1	4	coqueluche	confiture	test	no_accent	nasalization	X_O	2	2	1874.5078	1	1.064879e+03	1.827539e+02
sub_18	B1	5	potiron	gâterie	filler	no_accent	rounding	2_o	1	1	1584.4182	1	3.805742e+02	1.933789e+02
sub_18	B1	6	lendemain	palissade	filler	accent	nasalization	@_a	1	1	1336.5509	1	3.724062e+02	1.834961e+02
sub_18	B1	7	ceinturon	seigneurie	test	accent	nasalization	5_E	2	2	1729.8568	1	1.060164e+03	1.953516e+02
sub_18	B1	8	perroquet	chansonnette	filler	no_accent	VOT	b_p	2	2	1606.8909	1	1.055707e+03	1.864375e+02
sub_18	B1	9	lampadaire	lavabo	test	accent	nasalization	@_a	2	2	1387.5525	1	1.075020e+03	1.736133e+02
sub_18	B1	10	baisemain	perroquet	test	accent	VOT	b_p	1	1	1584.4527	1	3.825469e+02	1.928945e+02
sub_18	B1	11	confiture	pissenlit	filler	accent	nasalization	X_O	1	1	1240.5951	1	3.662344e+02	1.862109e+02
sub_18	B1	12	bâtiment	patelin	test	accent	VOT	b_p	2	2	1291.3373	1	1.068336e+03	1.852383e+02
sub_18	B1	13	randonnée	ralenti	test	accent	nasalization	@_a	1	1	1374.9117	1	3.766016e+02	1.980938e+02
sub_18	B1	14	baluchon	chapelet	filler	accent	VOT	b_p	2	2	1516.6026	1	1.065621e+03	1.837227e+02
sub_18	B1	15	patelin	chandeleur	filler	no_accent	VOT	b_p	2	2	963.8558	1	1.052250e+03	2.094922e+02
sub_18	B1	16	pesanteur	soupirant	filler	accent	rounding	2_o	1	1	1460.2369	1	3.842891e+02	1.864648e+02
sub_18	B1	17	gâterie	potiron	filler	accent	VOT	g_k	1	1	1361.1006	1	3.686914e+02	1.837227e+02
sub_18	B1	18	palissade	lendemain	filler	no_accent	VOT	b_p	1	1	1021.938	1	3.780586e+02	2.146602e+02
sub_18	B1	19	soupirant	pesanteur	filler	no_accent	rounding	y_u	2	2	1367.1142	1	1.060164e+03	1.988359e+02
sub_18	B1	20	pâturage	lampadaire	filler	no_accent	VOT	b_p	1	1	1292.2648	1	3.803477e+02	1.592422e+02
sub_18	B1	21	pissenlit	confiture	filler	no_accent	VOT	b_p	1	1	852.9113	1	3.753750e+02	1.612148e+02
sub_18	B1	22	boucherie	coqueluche	filler	accent	VOT	b_p	2	2	946.8419	1	1.069820e+03	1.844961e+02
sub_18	B1	23	chapelet	champignon	test	no_accent	nasalization	@_a	1	1	999.2139	1	4.226523e+02	1.908945e+02
sub_18	B1	24	champignon	chapelet	test	accent	nasalization	@_a	1	0	2000.0162	0	3.810586e+02	2.080039e+02
sub_18	B1	25	passerelle	ceinturon	filler	no_accent	nasalization	@_a	1	1	1042.55	1	3.865156e+02	1.896953e+02
sub_18	B1	26	bibelot	pissenlit	test	accent	VOT	b_p	2	0	2000.0236	0	1.087930e+03	1.787227e+02
sub_18	B1	27	penderie	chapiteau	filler	accent	nasalization	@_a	1	1	1135.328	1	3.657500e+02	1.837227e+02
sub_18	B1	28	canapé	gâterie	test	no_accent	VOT	g_k	1	1	987.8816	1	3.734062e+02	1.716133e+02
sub_18	B1	29	pourriture	supérette	filler	no_accent	VOT	b_p	2	2	1066.9877	1	1.075277e+03	1.876953e+02
sub_18	B1	30	baratin	palissade	test	accent	VOT	b_p	2	2	819.1434	1	1.066105e+03	2.042930e+02
sub_18	B1	31	chansonnette	chapiteau	test	accent	nasalization	@_a	2	2	1122.6833	1	1.084418e+03	1.889219e+02
sub_18	B1	32	pendentif	canapé	filler	accent	nasalization	@_a	2	2	1021.8166	1	1.072535e+03	1.928633e+02
sub_18	B1	33	laverie	baisemain	filler	no_accent	nasalization	@_a	1	1	962.5148	1	3.590352e+02	1.852383e+02
sub_18	B1	34	paperasse	champignon	filler	no_accent	nasalization	@_a	2	2	752.014	1	1.064621e+03	1.928945e+02
sub_18	B1	35	seigneurie	ceinturon	test	no_accent	nasalization	5_E	1	1	1459.951	1	4.073125e+02	1.829805e+02
sub_18	B1	36	lavabo	lampadaire	test	no_accent	nasalization	@_a	2	2	1042.9815	1	1.072047e+03	1.830117e+02
sub_18	B1	37	pèlerin	betterave	test	no_accent	VOT	b_p	1	1	1085.2143	1	3.657188e+02	1.872109e+02
sub_18	B1	38	betterave	lavabo	filler	accent	VOT	b_p	1	1	1044.5876	1	3.783477e+02	1.832383e+02
sub_18	B1	39	chapiteau	chansonnette	test	no_accent	nasalization	@_a	1	1	1123.039	1	3.553203e+02	1.718711e+02
sub_18	B1	40	supérette	soupirant	test	accent	rounding	y_u	2	2	1285.9191	1	1.065848e+03	1.867227e+02
sub_18	B2	1	potiron	pesanteur	test	no_accent	rounding	2_o	2	2	1156.8633	1	1.070820e+03	1.911523e+02
sub_18	B2	2	lendemain	laverie	test	accent	nasalization	@_a	1	1	852.9488	1	NA	1.904375e+02
sub_18	B2	3	châtiment	baratin	filler	no_accent	nasalization	@_a	1	1	1584.3342	1	3.818008e+02	1.951211e+02
sub_18	B2	4	randonnée	pèlerin	filler	accent	nasalization	@_a	1	1	1499.2944	1	3.790898e+02	1.728398e+02
sub_18	B2	5	pâturage	baluchon	test	no_accent	VOT	b_p	2	2	1055.7637	1	1.055707e+03	1.787812e+02
sub_18	B2	6	boucherie	pourriture	test	accent	VOT	b_p	1	1	941.828	1	3.597773e+02	1.792969e+02
sub_18	B2	7	baluchon	pâturage	test	accent	VOT	b_p	1	1	1179.0745	1	3.887461e+02	1.807812e+02
sub_18	B2	8	ralenti	randonnée	test	no_accent	nasalization	@_a	1	1	1505.0561	1	3.647188e+02	1.750977e+02
sub_18	B2	9	lampadaire	pâturage	filler	accent	nasalization	@_a	2	2	1111.568	1	1.084418e+03	1.728711e+02
sub_18	B2	10	pissenlit	bibelot	test	no_accent	VOT	b_p	1	1	1089.5708	1	3.664609e+02	1.441328e+02
sub_18	B2	11	ceinturon	passerelle	filler	accent	nasalization	5_E	2	2	1362.416	1	1.064621e+03	1.453594e+02
sub_18	B2	12	champignon	paperasse	filler	accent	nasalization	@_a	2	2	1055.2584	1	1.039109e+03	1.968633e+02
sub_18	B2	13	chapelet	baluchon	filler	no_accent	nasalization	@_a	1	1	963.7523	1	3.805742e+02	1.911797e+02
sub_18	B2	14	palissade	baratin	test	no_accent	VOT	b_p	1	1	864.3178	1	NA	1.914102e+02
sub_18	B2	15	pesanteur	potiron	test	accent	rounding	2_o	1	1	1021.8645	1	4.018555e+02	1.701250e+02
sub_18	B2	16	bâtiment	ralenti	filler	accent	VOT	b_p	2	2	1157.2313	1	1.063879e+03	1.846953e+02
sub_18	B2	17	perroquet	baisemain	test	no_accent	VOT	b_p	2	2	920.4954	1	1.066848e+03	1.864375e+02
sub_18	B2	18	laverie	lendemain	test	no_accent	nasalization	@_a	2	2	1320.6787	1	1.068336e+03	1.986094e+02
sub_18	B2	19	gâterie	canapé	test	accent	VOT	g_k	2	2	942.8599	1	1.034910e+03	1.882109e+02
sub_18	B2	20	canapé	pendentif	filler	no_accent	VOT	g_k	1	1	942.7484	1	4.021133e+02	1.686133e+02
sub_18	B2	21	passerelle	pendentif	test	no_accent	nasalization	@_a	2	2	1078.6159	1	1.055965e+03	1.604414e+02
sub_18	B2	22	paperasse	penderie	test	no_accent	nasalization	@_a	1	1	1235.683	1	3.647188e+02	1.790117e+02
sub_18	B2	23	lavabo	betterave	filler	no_accent	nasalization	@_a	1	1	998.1457	1	3.790898e+02	1.909219e+02
sub_18	B2	24	soupirant	supérette	test	no_accent	rounding	y_u	2	2	1010.6608	1	1.047539e+03	1.596836e+02
sub_18	B2	25	coqueluche	boucherie	filler	no_accent	nasalization	X_O	2	2	886.647	1	1.068336e+03	1.592422e+02
sub_18	B2	26	confiture	coqueluche	test	accent	nasalization	X_O	2	2	1213.2729	1	1.074277e+03	1.725820e+02
sub_18	B2	27	chandeleur	patelin	filler	accent	nasalization	@_a	1	1	1348.2548	1	3.582930e+02	1.849805e+02
sub_18	B2	28	pendentif	passerelle	test	accent	nasalization	@_a	1	1	1336.5128	1	3.927148e+02	1.941211e+02
sub_18	B2	29	pourriture	boucherie	test	no_accent	VOT	b_p	2	2	981.7065	1	1.078703e+03	1.691250e+02
sub_18	B2	30	patelin	bâtiment	test	no_accent	VOT	b_p	2	2	1167.9273	1	1.040109e+03	1.931211e+02
sub_18	B2	31	chansonnette	perroquet	filler	accent	nasalization	@_a	2	2	1133.4228	1	1.046539e+03	1.864648e+02
sub_18	B2	32	pèlerin	randonnée	filler	no_accent	VOT	b_p	2	2	1775.0937	1	1.067105e+03	1.807227e+02
sub_18	B2	33	seigneurie	bibelot	filler	no_accent	nasalization	5_E	2	2	1029.1449	1	1.053480e+03	2.023203e+02
sub_18	B2	34	baisemain	laverie	filler	accent	VOT	b_p	2	2	1115.4386	1	1.056449e+03	2.015781e+02
sub_18	B2	35	penderie	paperasse	test	accent	nasalization	@_a	1	1	1122.8513	1	3.902305e+02	1.790391e+02
sub_18	B2	36	supérette	pourriture	filler	accent	rounding	y_u	2	2	1055.2472	1	1.046566e+03	2.042930e+02
sub_18	B2	37	chapiteau	penderie	filler	no_accent	nasalization	@_a	2	2	1100.3385	1	1.062395e+03	1.718398e+02
sub_18	B2	38	baratin	châtiment	filler	accent	VOT	b_p	1	1	1136.0942	1	3.582930e+02	1.567578e+02
sub_18	B2	39	betterave	pèlerin	test	accent	VOT	b_p	2	2	826.8537	1	1.090617e+03	1.614727e+02
sub_18	B2	40	bibelot	seigneurie	filler	accent	VOT	b_p	1	1	1115.3766	1	3.776016e+02	1.602422e+02
sub_18	B3	1	pâturage	baluchon	test	no_accent	VOT	b_p	2	2	1017.342	1	1.068590e+03	1.725820e+02
sub_18	B3	2	ceinturon	passerelle	filler	accent	nasalization	5_E	2	2	1224.5271	1	1.072789e+03	1.936367e+02
sub_18	B3	3	pourriture	boucherie	test	no_accent	VOT	b_p	2	2	1087.9253	1	1.084188e+03	2.057773e+02
sub_18	B3	4	champignon	paperasse	filler	accent	nasalization	@_a	2	2	1246.9656	1	1.055707e+03	1.740977e+02
sub_18	B3	5	palissade	lendemain	filler	no_accent	VOT	b_p	1	1	899.7171	1	4.229102e+02	1.446445e+02
sub_18	B3	6	potiron	gâterie	filler	no_accent	rounding	2_o	1	1	1128.7466	1	3.669492e+02	1.788398e+02
sub_18	B3	7	chandeleur	patelin	filler	accent	nasalization	@_a	1	1	1055.5286	1	3.907148e+02	1.934102e+02
sub_18	B3	8	bibelot	pissenlit	test	accent	VOT	b_p	2	2	1033.6855	1	1.047539e+03	1.953789e+02
sub_18	B3	9	baisemain	laverie	filler	accent	VOT	b_p	2	2	1021.9081	1	1.073535e+03	1.830117e+02
sub_18	B3	10	confiture	coqueluche	test	accent	nasalization	X_O	2	2	1314.0226	1	1.073504e+03	1.802695e+02
sub_18	B3	11	chapiteau	chansonnette	test	no_accent	nasalization	@_a	1	1	1007.3663	1	4.147383e+02	1.815234e+02
sub_18	B3	12	pendentif	canapé	filler	accent	nasalization	@_a	2	2	1291.8817	1	1.079477e+03	1.904375e+02
sub_18	B3	13	gâterie	canapé	test	accent	VOT	g_k	2	2	875.4459	1	1.053738e+03	1.881797e+02
sub_18	B3	14	penderie	chapiteau	filler	accent	nasalization	@_a	1	1	1353.8963	1	3.580664e+02	1.869531e+02
sub_18	B3	15	baluchon	chapelet	filler	accent	VOT	b_p	2	2	1979.7114	1	1.075535e+03	1.795547e+02
sub_18	B3	16	lampadaire	pâturage	filler	accent	nasalization	@_a	2	2	1235.5631	1	1.046797e+03	2.104922e+02
sub_18	B3	17	bâtiment	patelin	test	accent	VOT	b_p	2	2	1820.7589	1	1.034910e+03	1.867227e+02
sub_18	B3	18	coqueluche	confiture	test	no_accent	nasalization	X_O	2	2	1286.1878	1	1.046566e+03	1.881797e+02
sub_18	B3	19	ralenti	bâtiment	filler	no_accent	nasalization	@_a	2	2	1325.9527	1	1.104469e+03	1.896641e+02
sub_18	B3	20	pissenlit	confiture	filler	no_accent	VOT	b_p	1	1	1116.3249	1	4.147383e+02	1.926641e+02
sub_18	B3	21	châtiment	baratin	filler	no_accent	nasalization	@_a	1	1	1022.3621	1	3.872578e+02	2.060039e+02
sub_18	B3	22	lavabo	lampadaire	test	no_accent	nasalization	@_a	2	2	1109.3753	1	1.043082e+03	1.990625e+02
sub_18	B3	23	patelin	bâtiment	test	no_accent	VOT	b_p	2	2	1336.6607	1	1.075020e+03	1.934102e+02
sub_18	B3	24	lendemain	laverie	test	accent	nasalization	@_a	1	1	1685.5577	1	3.642344e+02	2.050039e+02
sub_18	B3	25	boucherie	pourriture	test	accent	VOT	b_p	1	1	1314.2109	1	3.746328e+02	1.916367e+02
sub_18	B3	26	randonnée	pèlerin	filler	accent	nasalization	@_a	1	1	1212.7741	1	3.682070e+02	1.836953e+02
sub_18	B3	27	paperasse	champignon	filler	no_accent	nasalization	@_a	2	2	1165.0619	1	1.080219e+03	1.743242e+02
sub_18	B3	28	perroquet	chansonnette	filler	no_accent	VOT	b_p	2	2	1056.0209	1	1.092102e+03	1.624414e+02
sub_18	B3	29	passerelle	ceinturon	filler	no_accent	nasalization	@_a	1	1	1112.2119	1	3.620078e+02	1.572148e+02
sub_18	B3	30	seigneurie	bibelot	filler	no_accent	nasalization	5_E	2	2	852.4772	1	1.039141e+03	2.122031e+02
sub_18	B3	31	chansonnette	chapiteau	test	accent	nasalization	@_a	2	2	1235.2842	1	1.079504e+03	1.733242e+02
sub_18	B3	32	pesanteur	potiron	test	accent	rounding	2_o	1	1	1359.5423	1	4.043398e+02	1.822383e+02
sub_18	B3	33	canapé	gâterie	test	no_accent	VOT	g_k	1	1	1157.2467	1	3.951719e+02	1.500742e+02
sub_18	B3	34	baratin	palissade	test	accent	VOT	b_p	2	2	1263.049	1	1.093074e+03	1.765547e+02
sub_18	B3	35	soupirant	pesanteur	filler	no_accent	rounding	y_u	2	2	853.0361	1	1.052738e+03	1.525586e+02
sub_18	B3	36	chapelet	baluchon	filler	no_accent	nasalization	@_a	1	1	932.0203	1	3.894883e+02	2.057773e+02
sub_18	B3	37	supérette	pourriture	filler	accent	rounding	y_u	2	2	987.8883	1	1.077988e+03	1.584727e+02
sub_18	B3	38	pèlerin	betterave	test	no_accent	VOT	b_p	1	1	1155.6454	1	3.590352e+02	1.703828e+02
sub_18	B3	39	betterave	pèlerin	test	accent	VOT	b_p	2	2	807.8049	1	1.062906e+03	2.005508e+02
sub_18	B3	40	laverie	lendemain	test	no_accent	nasalization	@_a	2	2	954.5567	1	1.106957e+03	1.750703e+02
sub_18	B4	1	chandeleur	châtiment	test	accent	nasalization	@_a	1	1	906.5688	1	3.981406e+02	1.706133e+02
sub_18	B4	2	baisemain	perroquet	test	accent	VOT	b_p	1	0	2000.0383	0	3.624922e+02	1.490742e+02
sub_18	B4	3	ceinturon	seigneurie	test	accent	nasalization	5_E	2	2	977.0207	1	1.073535e+03	1.681836e+02
sub_18	B4	4	ralenti	randonnée	test	no_accent	nasalization	@_a	1	1	1247.463	1	3.907148e+02	2.044922e+02
sub_18	B4	5	passerelle	pendentif	test	no_accent	nasalization	@_a	2	2	1269.0425	1	1.046797e+03	2.122344e+02
sub_18	B4	6	perroquet	baisemain	test	no_accent	VOT	b_p	2	2	807.7399	1	1.099016e+03	1.886641e+02
sub_18	B4	7	pissenlit	bibelot	test	no_accent	VOT	b_p	1	1	863.7761	1	3.708906e+02	1.834648e+02
sub_18	B4	8	bâtiment	ralenti	filler	accent	VOT	b_p	2	2	1831.9411	1	1.083445e+03	1.641562e+02
sub_18	B4	9	palissade	baratin	test	no_accent	VOT	b_p	1	1	970.3186	1	3.688906e+02	1.792969e+02
sub_18	B4	10	champignon	chapelet	test	accent	nasalization	@_a	1	1	830.6151	1	3.746328e+02	1.978359e+02
sub_18	B4	11	baratin	châtiment	filler	accent	VOT	b_p	1	1	875.6745	1	3.884883e+02	1.995508e+02
sub_18	B4	12	pâturage	lampadaire	filler	no_accent	VOT	b_p	1	1	1213.2819	1	3.684336e+02	2.126914e+02
sub_18	B4	13	pendentif	passerelle	test	accent	nasalization	@_a	1	1	1033.2586	1	3.394961e+02	1.686133e+02
sub_18	B4	14	potiron	pesanteur	test	no_accent	rounding	2_o	2	2	1044.0791	1	1.078477e+03	1.795234e+02
sub_18	B4	15	pesanteur	soupirant	filler	accent	rounding	2_o	1	1	876.8027	1	3.738906e+02	1.866953e+02
sub_18	B4	16	baluchon	pâturage	test	accent	VOT	b_p	1	1	1083.2869	1	3.689180e+02	1.916641e+02
sub_18	B4	17	chapelet	champignon	test	no_accent	nasalization	@_a	1	1	975.4172	1	3.812891e+02	2.104609e+02
sub_18	B4	18	gâterie	potiron	filler	accent	VOT	g_k	1	1	807.9072	1	3.768594e+02	2.013203e+02
sub_18	B4	19	patelin	chandeleur	filler	no_accent	VOT	b_p	2	2	1235.5229	1	1.070820e+03	1.906641e+02
sub_18	B4	20	randonnée	ralenti	test	accent	nasalization	@_a	1	1	987.8994	1	3.825469e+02	1.792695e+02
sub_18	B4	21	soupirant	supérette	test	no_accent	rounding	y_u	2	2	1700.1064	1	1.083418e+03	1.582422e+02
sub_18	B4	22	lendemain	palissade	filler	accent	nasalization	@_a	1	1	863.1688	1	4.018555e+02	1.830117e+02
sub_18	B4	23	boucherie	coqueluche	filler	accent	VOT	b_p	2	2	1994.1497	1	1.082445e+03	1.669297e+02
sub_18	B4	24	coqueluche	boucherie	filler	no_accent	nasalization	X_O	2	2	762.9803	1	1.061164e+03	1.829805e+02
sub_18	B4	25	chapiteau	penderie	filler	no_accent	nasalization	@_a	2	2	802.0043	1	1.078961e+03	2.040625e+02
sub_18	B4	26	canapé	pendentif	filler	no_accent	VOT	g_k	1	1	875.9797	1	3.630078e+02	2.129492e+02
sub_18	B4	27	supérette	soupirant	test	accent	rounding	y_u	2	2	1629.3605	1	1.041855e+03	1.852383e+02
sub_18	B4	28	paperasse	penderie	test	no_accent	nasalization	@_a	1	1	1024.6816	1	3.996289e+02	1.575312e+02
sub_18	B4	29	pourriture	supérette	filler	no_accent	VOT	b_p	2	2	954.9225	1	1.049766e+03	1.401914e+02
sub_18	B4	30	seigneurie	ceinturon	test	no_accent	nasalization	5_E	1	1	1236.1462	1	4.011133e+02	1.978359e+02
sub_18	B4	31	lampadaire	lavabo	test	accent	nasalization	@_a	2	2	1058.0679	1	1.092074e+03	1.493594e+02
sub_18	B4	32	pèlerin	randonnée	filler	no_accent	VOT	b_p	2	2	1067.2897	1	1.060137e+03	1.795234e+02
sub_18	B4	33	chansonnette	perroquet	filler	accent	nasalization	@_a	2	2	1144.595	1	1.074535e+03	1.575000e+02
sub_18	B4	34	bibelot	seigneurie	filler	accent	VOT	b_p	1	1	1132.2709	1	3.556094e+02	1.553008e+02
sub_18	B4	35	laverie	baisemain	filler	no_accent	nasalization	@_a	1	1	981.5907	1	3.612344e+02	1.581016e+02
sub_18	B4	36	betterave	lavabo	filler	accent	VOT	b_p	1	1	892.1701	1	3.934297e+02	1.827539e+02
sub_18	B4	37	châtiment	chandeleur	test	no_accent	nasalization	@_a	1	1	1145.5212	1	3.874883e+02	1.726133e+02
sub_18	B4	38	confiture	pissenlit	filler	accent	nasalization	X_O	1	1	1833.6694	1	3.778008e+02	1.631250e+02
sub_18	B4	39	penderie	paperasse	test	accent	nasalization	@_a	1	1	1131.7782	1	3.570078e+02	1.718398e+02
sub_18	B4	40	lavabo	betterave	filler	no_accent	nasalization	@_a	1	1	1100.4557	1	3.335273e+02	1.483594e+02
