subID	block	trial_number	target	distractor	trial_type	item_type	error_type	error_subtype	screen_side	response_screen	rt	correct	mouse_final_x	mouse_final_y
sub_22	B1	1	potiron	gâterie	filler	no_accent	rounding	2_o	2	2	1536.7859	1	1.078703e+03	1.770391e+02
sub_22	B1	2	chandeleur	patelin	filler	accent	nasalization	@_a	2	2	1459.3188	1	1.066078e+03	2.109492e+02
sub_22	B1	3	chapelet	baluchon	filler	no_accent	nasalization	@_a	1	1	1314.6688	1	3.718594e+02	1.872109e+02
sub_22	B1	4	pourriture	supérette	filler	no_accent	VOT	b_p	2	2	1121.6033	1	1.063137e+03	1.780391e+02
sub_22	B1	5	supérette	soupirant	test	accent	rounding	y_u	1	1	1482.7959	1	3.686914e+02	1.916367e+02
sub_22	B1	6	ceinturon	passerelle	filler	accent	nasalization	5_E	2	2	1212.9404	1	1.071078e+03	1.931211e+02
sub_22	B1	7	bibelot	seigneurie	filler	accent	VOT	b_p	1	1	900.9683	1	3.951992e+02	1.740977e+02
sub_22	B1	8	canapé	gâterie	test	no_accent	VOT	g_k	2	2	643.6452	1	1.103016e+03	1.864648e+02
sub_22	B1	9	laverie	baisemain	filler	no_accent	nasalization	@_a	2	2	935.6995	1	1.044539e+03	2.000938e+02
sub_22	B1	10	soupirant	supérette	test	no_accent	rounding	y_u	1	1	811.6443	1	3.731484e+02	1.832695e+02
sub_22	B1	11	lavabo	betterave	filler	no_accent	nasalization	@_a	2	2	571.4447	1	1.041598e+03	1.587305e+02
sub_22	B1	12	gâterie	potiron	filler	accent	VOT	g_k	2	2	693.1642	1	1.053250e+03	1.909219e+02
sub_22	B1	13	pendentif	canapé	filler	accent	nasalization	@_a	2	2	898.1253	1	1.042566e+03	2.045195e+02
sub_22	B1	14	patelin	chandeleur	filler	no_accent	VOT	b_p	1	1	684.822	1	3.756016e+02	2.032930e+02
sub_22	B1	15	palissade	baratin	test	no_accent	VOT	b_p	2	2	1100.2757	1	1.097301e+03	1.891797e+02
sub_22	B1	16	paperasse	penderie	test	no_accent	nasalization	@_a	2	2	988.5521	1	1.052738e+03	2.149492e+02
sub_22	B1	17	lampadaire	lavabo	test	accent	nasalization	@_a	1	1	1087.2776	1	3.622617e+02	1.862109e+02
sub_22	B1	18	baratin	châtiment	filler	accent	VOT	b_p	2	2	920.3715	1	1.040367e+03	2.057500e+02
sub_22	B1	19	confiture	pissenlit	filler	accent	nasalization	X_O	2	2	650.4481	1	1.053480e+03	1.713555e+02
sub_22	B1	20	bâtiment	ralenti	filler	accent	VOT	b_p	1	1	819.5982	1	3.813164e+02	1.928945e+02
sub_22	B1	21	boucherie	coqueluche	filler	accent	VOT	b_p	2	2	594.6142	1	1.056938e+03	1.520430e+02
sub_22	B1	22	perroquet	chansonnette	filler	no_accent	VOT	b_p	2	2	603.0132	1	1.075020e+03	2.260586e+02
sub_22	B1	23	randonnée	pèlerin	filler	accent	nasalization	@_a	1	1	1460.1123	1	3.300703e+02	1.802695e+02
sub_22	B1	24	baluchon	chapelet	filler	accent	VOT	b_p	1	1	706.637	1	3.694336e+02	1.876953e+02
sub_22	B1	25	pesanteur	soupirant	filler	accent	rounding	2_o	2	2	841.6321	1	1.037883e+03	2.035195e+02
sub_22	B1	26	pèlerin	randonnée	filler	no_accent	VOT	b_p	1	1	808.3414	1	3.736602e+02	2.003203e+02
sub_22	B1	27	champignon	paperasse	filler	accent	nasalization	@_a	2	2	1122.8523	1	1.043824e+03	1.995781e+02
sub_22	B1	28	lendemain	palissade	filler	accent	nasalization	@_a	1	1	729.2246	1	3.842891e+02	1.810117e+02
sub_22	B1	29	chapiteau	penderie	filler	no_accent	nasalization	@_a	2	2	768.1109	1	1.076535e+03	2.057773e+02
sub_22	B1	30	passerelle	ceinturon	filler	no_accent	nasalization	@_a	1	1	922.7535	1	3.902305e+02	1.924102e+02
sub_22	B1	31	baisemain	laverie	filler	accent	VOT	b_p	1	1	1123.6014	1	3.795742e+02	1.864375e+02
sub_22	B1	32	seigneurie	bibelot	filler	no_accent	nasalization	5_E	1	1	698.8978	1	4.105391e+02	2.040352e+02
sub_22	B1	33	chansonnette	chapiteau	test	accent	nasalization	@_a	2	2	1340.5444	1	1.075535e+03	1.854648e+02
sub_22	B1	34	coqueluche	boucherie	filler	no_accent	nasalization	X_O	1	1	729.0042	1	3.545781e+02	1.770703e+02
sub_22	B1	35	pâturage	baluchon	test	no_accent	VOT	b_p	2	2	1033.6853	1	1.073277e+03	1.642148e+02
sub_22	B1	36	ralenti	bâtiment	filler	no_accent	nasalization	@_a	2	2	1899.9138	1	1.059195e+03	2.213750e+02
sub_22	B1	37	betterave	pèlerin	test	accent	VOT	b_p	1	1	819.3226	1	3.820586e+02	1.720977e+02
sub_22	B1	38	pissenlit	bibelot	test	no_accent	VOT	b_p	2	2	1032.8527	1	1.040141e+03	1.970938e+02
sub_22	B1	39	châtiment	baratin	filler	no_accent	nasalization	@_a	1	1	1786.2771	1	3.971133e+02	1.902109e+02
sub_22	B1	40	penderie	paperasse	test	accent	nasalization	@_a	1	1	1301.1545	1	3.771172e+02	1.859805e+02
sub_22	B2	1	ceinturon	seigneurie	test	accent	nasalization	5_E	1	1	830.6704	1	3.902305e+02	1.837539e+02
sub_22	B2	2	supérette	pourriture	filler	accent	rounding	y_u	2	2	1191.1943	1	1.060164e+03	2.035195e+02
sub_22	B2	3	chapelet	champignon	test	no_accent	nasalization	@_a	2	2	1485.89	1	1.055965e+03	2.109766e+02
sub_22	B2	4	gâterie	canapé	test	accent	VOT	g_k	1	1	954.0948	1	3.625195e+02	1.785234e+02
sub_22	B2	5	lavabo	lampadaire	test	no_accent	nasalization	@_a	1	1	1137.7608	1	3.721484e+02	1.824961e+02
sub_22	B2	6	potiron	pesanteur	test	no_accent	rounding	2_o	1	1	959.8196	1	3.867734e+02	1.862109e+02
sub_22	B2	7	bâtiment	patelin	test	accent	VOT	b_p	2	2	1268.8186	1	1.054996e+03	1.778125e+02
sub_22	B2	8	canapé	pendentif	filler	no_accent	VOT	g_k	1	1	930.4734	1	3.726602e+02	1.859531e+02
sub_22	B2	9	lampadaire	pâturage	filler	accent	nasalization	@_a	1	1	960.0902	1	3.714336e+02	1.805234e+02
sub_22	B2	10	patelin	bâtiment	test	no_accent	VOT	b_p	1	1	1238.3324	1	3.662070e+02	1.941523e+02
sub_22	B2	11	chandeleur	châtiment	test	accent	nasalization	@_a	2	2	1094.8872	1	1.057449e+03	2.022930e+02
sub_22	B2	12	boucherie	pourriture	test	accent	VOT	b_p	2	2	865.0507	1	1.032457e+03	1.859531e+02
sub_22	B2	13	pendentif	passerelle	test	accent	nasalization	@_a	2	2	929.3553	1	1.067820e+03	1.773828e+02
sub_22	B2	14	soupirant	pesanteur	filler	no_accent	rounding	y_u	1	1	965.465	1	3.706914e+02	1.710703e+02
sub_22	B2	15	lendemain	laverie	test	accent	nasalization	@_a	2	2	1449.2173	1	1.067105e+03	1.966094e+02
sub_22	B2	16	bibelot	pissenlit	test	accent	VOT	b_p	2	2	1133.99	1	1.073789e+03	1.911523e+02
sub_22	B2	17	perroquet	baisemain	test	no_accent	VOT	b_p	1	1	1044.6928	1	3.919727e+02	1.966094e+02
sub_22	B2	18	passerelle	pendentif	test	no_accent	nasalization	@_a	2	2	862.2919	1	1.046797e+03	1.852383e+02
sub_22	B2	19	coqueluche	confiture	test	no_accent	nasalization	X_O	1	1	1134.2553	1	3.605508e+02	1.770391e+02
sub_22	B2	20	baluchon	pâturage	test	accent	VOT	b_p	1	1	1066.5763	1	4.097969e+02	1.641836e+02
sub_22	B2	21	laverie	lendemain	test	no_accent	nasalization	@_a	2	2	1174.3377	1	1.057680e+03	1.706406e+02
sub_22	B2	22	baisemain	perroquet	test	accent	VOT	b_p	2	2	1228.0155	1	1.050023e+03	1.810391e+02
sub_22	B2	23	randonnée	ralenti	test	accent	nasalization	@_a	2	2	1392.3802	1	1.057195e+03	1.822695e+02
sub_22	B2	24	pourriture	boucherie	test	no_accent	VOT	b_p	1	1	1223.4865	1	3.382695e+02	1.938945e+02
sub_22	B2	25	confiture	coqueluche	test	accent	nasalization	X_O	2	2	999.1869	1	1.035684e+03	1.642148e+02
sub_22	B2	26	pissenlit	confiture	filler	no_accent	VOT	b_p	1	1	1099.1684	1	3.726328e+02	1.832695e+02
sub_22	B2	27	pèlerin	betterave	test	no_accent	VOT	b_p	1	1	1139.5746	1	3.813164e+02	1.788164e+02
sub_22	B2	28	palissade	lendemain	filler	no_accent	VOT	b_p	2	2	1258.5873	1	1.048797e+03	1.830117e+02
sub_22	B2	29	champignon	chapelet	test	accent	nasalization	@_a	1	1	1244.603	1	3.634922e+02	1.822695e+02
sub_22	B2	30	baratin	palissade	test	accent	VOT	b_p	1	1	1337.2408	1	3.961719e+02	1.862109e+02
sub_22	B2	31	chapiteau	chansonnette	test	no_accent	nasalization	@_a	2	2	1224.8137	1	1.060422e+03	1.983516e+02
sub_22	B2	32	pesanteur	potiron	test	accent	rounding	2_o	1	1	1078.1469	1	3.828008e+02	1.641836e+02
sub_22	B2	33	pâturage	lampadaire	filler	no_accent	VOT	b_p	2	2	1112.4282	1	1.089387e+03	1.740977e+02
sub_22	B2	34	seigneurie	ceinturon	test	no_accent	nasalization	5_E	1	1	980.7128	1	3.760586e+02	2.000898e+02
sub_22	B2	35	betterave	lavabo	filler	accent	VOT	b_p	1	1	1111.0049	1	NA	2.052930e+02
sub_22	B2	36	chansonnette	perroquet	filler	accent	nasalization	@_a	1	1	1177.8972	1	3.686914e+02	1.718711e+02
sub_22	B2	37	paperasse	champignon	filler	no_accent	nasalization	@_a	2	2	1019.4703	1	1.049539e+03	1.681562e+02
sub_22	B2	38	châtiment	chandeleur	test	no_accent	nasalization	@_a	1	1	1151.942	1	3.776016e+02	1.867227e+02
sub_22	B2	39	ralenti	randonnée	test	no_accent	nasalization	@_a	2	2	1021.7246	1	1.077246e+03	1.758398e+02
sub_22	B2	40	penderie	chapiteau	filler	accent	nasalization	@_a	1	1	909.3246	1	3.776016e+02	1.614727e+02
sub_22	B3	1	pendentif	passerelle	test	accent	nasalization	@_a	2	2	1021.0817	1	1.056707e+03	1.669297e+02
sub_22	B3	2	bâtiment	patelin	test	accent	VOT	b_p	2	2	1480.9857	1	1.081445e+03	1.622148e+02
sub_22	B3	3	champignon	chapelet	test	accent	nasalization	@_a	1	1	1049.2094	1	3.600352e+02	1.842383e+02
sub_22	B3	4	ralenti	randonnée	test	no_accent	nasalization	@_a	2	2	954.2271	1	1.040367e+03	1.919219e+02
sub_22	B3	5	ceinturon	passerelle	filler	accent	nasalization	5_E	2	2	912.7826	1	1.045309e+03	1.723555e+02
sub_22	B3	6	chapelet	baluchon	filler	no_accent	nasalization	@_a	1	1	1021.1284	1	3.897461e+02	1.792969e+02
sub_22	B3	7	lendemain	laverie	test	accent	nasalization	@_a	2	2	1256.6269	1	1.066105e+03	1.822695e+02
sub_22	B3	8	coqueluche	confiture	test	no_accent	nasalization	X_O	1	1	1144.1093	1	3.971719e+02	2.028047e+02
sub_22	B3	9	pesanteur	soupirant	filler	accent	rounding	2_o	2	2	1141.9848	1	1.057938e+03	1.713828e+02
sub_22	B3	10	châtiment	baratin	filler	no_accent	nasalization	@_a	1	1	1026.0429	1	3.516094e+02	1.448750e+02
sub_22	B3	11	canapé	gâterie	test	no_accent	VOT	g_k	2	2	872.7153	1	1.047055e+03	1.763242e+02
sub_22	B3	12	pissenlit	confiture	filler	no_accent	VOT	b_p	1	1	1087.2458	1	3.781172e+02	1.778125e+02
sub_22	B3	13	gâterie	canapé	test	accent	VOT	g_k	1	1	1392.2582	1	3.988555e+02	2.013203e+02
sub_22	B3	14	chapiteau	chansonnette	test	no_accent	nasalization	@_a	2	2	1497.8448	1	1.082930e+03	1.996094e+02
sub_22	B3	15	lampadaire	lavabo	test	accent	nasalization	@_a	1	1	1195.0324	1	3.894883e+02	1.830117e+02
sub_22	B3	16	lavabo	lampadaire	test	no_accent	nasalization	@_a	1	1	1122.8566	1	3.711758e+02	1.710977e+02
sub_22	B3	17	laverie	lendemain	test	no_accent	nasalization	@_a	2	2	1133.4511	1	1.020801e+03	1.681562e+02
sub_22	B3	18	potiron	pesanteur	test	no_accent	rounding	2_o	1	1	780.6519	1	4.006289e+02	1.874648e+02
sub_22	B3	19	pourriture	supérette	filler	no_accent	VOT	b_p	2	2	940.2791	1	1.049055e+03	1.850117e+02
sub_22	B3	20	palissade	baratin	test	no_accent	VOT	b_p	2	2	1008.2325	1	1.021543e+03	1.926641e+02
sub_22	B3	21	chandeleur	patelin	filler	accent	nasalization	@_a	2	2	885.2574	1	1.049766e+03	1.859805e+02
sub_22	B3	22	boucherie	coqueluche	filler	accent	VOT	b_p	2	2	1632.0674	1	1.047539e+03	2.251172e+02
sub_22	B3	23	patelin	bâtiment	test	no_accent	VOT	b_p	1	1	1155.0774	1	3.909727e+02	1.852383e+02
sub_22	B3	24	supérette	pourriture	filler	accent	rounding	y_u	2	2	937.3654	1	1.069590e+03	1.874648e+02
sub_22	B3	25	pâturage	baluchon	test	no_accent	VOT	b_p	2	2	1101.1046	1	1.049766e+03	1.755820e+02
sub_22	B3	26	baratin	palissade	test	accent	VOT	b_p	1	1	1031.6335	1	3.605195e+02	1.726133e+02
sub_22	B3	27	randonnée	pèlerin	filler	accent	nasalization	@_a	1	1	1044.041	1	4.167383e+02	2.102344e+02
sub_22	B3	28	passerelle	pendentif	test	no_accent	nasalization	@_a	2	2	942.3939	1	1.023027e+03	1.674141e+02
sub_22	B3	29	paperasse	penderie	test	no_accent	nasalization	@_a	2	2	890.1249	1	1.019828e+03	1.770703e+02
sub_22	B3	30	baisemain	laverie	filler	accent	VOT	b_p	1	1	1179.1238	1	3.850312e+02	1.602148e+02
sub_22	B3	31	bibelot	seigneurie	filler	accent	VOT	b_p	1	1	1246.5573	1	3.748594e+02	1.914102e+02
sub_22	B3	32	baluchon	chapelet	filler	accent	VOT	b_p	1	1	1088.7124	1	3.780586e+02	1.610156e+02
sub_22	B3	33	chansonnette	perroquet	filler	accent	nasalization	@_a	1	1	1257.8056	1	3.931992e+02	2.018047e+02
sub_22	B3	34	penderie	paperasse	test	accent	nasalization	@_a	1	1	1032.9503	1	3.944570e+02	1.612148e+02
sub_22	B3	35	pèlerin	randonnée	filler	no_accent	VOT	b_p	1	1	1038.0009	1	3.964297e+02	1.852383e+02
sub_22	B3	36	soupirant	pesanteur	filler	no_accent	rounding	y_u	1	1	1506.085	1	3.822891e+02	1.946367e+02
sub_22	B3	37	confiture	pissenlit	filler	accent	nasalization	X_O	2	2	794.9241	1	1.036398e+03	1.473594e+02
sub_22	B3	38	perroquet	chansonnette	filler	no_accent	VOT	b_p	2	2	995.4795	1	1.024516e+03	1.703828e+02
sub_22	B3	39	betterave	pèlerin	test	accent	VOT	b_p	1	1	1077.9882	1	3.763750e+02	1.763242e+02
sub_22	B3	40	seigneurie	bibelot	filler	no_accent	nasalization	5_E	1	1	1014.2633	1	4.043398e+02	1.830117e+02
sub_22	B4	1	coqueluche	boucherie	filler	no_accent	nasalization	X_O	1	1	1031.0984	1	3.590352e+02	1.901797e+02
sub_22	B4	2	châtiment	chandeleur	test	no_accent	nasalization	@_a	1	1	1081.0942	1	4.021133e+02	1.800391e+02
sub_22	B4	3	pendentif	canapé	filler	accent	nasalization	@_a	2	2	903.2698	1	1.043109e+03	1.681562e+02
sub_22	B4	4	pourriture	boucherie	test	no_accent	VOT	b_p	1	1	824.0448	1	3.709180e+02	1.872109e+02
sub_22	B4	5	gâterie	potiron	filler	accent	VOT	g_k	2	2	919.684	1	1.028227e+03	1.577578e+02
sub_22	B4	6	ralenti	bâtiment	filler	no_accent	nasalization	@_a	2	2	1387.9672	1	1.086645e+03	1.755820e+02
sub_22	B4	7	laverie	baisemain	filler	no_accent	nasalization	@_a	2	2	1381.0047	1	1.043824e+03	1.689297e+02
sub_22	B4	8	chandeleur	châtiment	test	accent	nasalization	@_a	2	2	1225.7335	1	1.062395e+03	1.644414e+02
sub_22	B4	9	baluchon	pâturage	test	accent	VOT	b_p	1	1	839.2067	1	4.075391e+02	1.963789e+02
sub_22	B4	10	chapiteau	penderie	filler	no_accent	nasalization	@_a	2	2	1033.0314	1	1.043082e+03	1.924102e+02
sub_22	B4	11	bibelot	pissenlit	test	accent	VOT	b_p	2	2	1139.8521	1	1.038398e+03	1.807812e+02
sub_22	B4	12	passerelle	ceinturon	filler	no_accent	nasalization	@_a	1	1	1100.3801	1	3.887461e+02	1.639297e+02
sub_22	B4	13	boucherie	pourriture	test	accent	VOT	b_p	2	2	1081.8301	1	1.061164e+03	1.716133e+02
sub_22	B4	14	lendemain	palissade	filler	accent	nasalization	@_a	1	1	1182.0278	1	3.835469e+02	1.929219e+02
sub_22	B4	15	canapé	pendentif	filler	no_accent	VOT	g_k	1	1	919.7198	1	4.065703e+02	1.916641e+02
sub_22	B4	16	supérette	soupirant	test	accent	rounding	y_u	1	1	1343.4126	1	3.640078e+02	1.844961e+02
sub_22	B4	17	pissenlit	bibelot	test	no_accent	VOT	b_p	2	2	980.4245	1	1.031199e+03	1.993516e+02
sub_22	B4	18	bâtiment	ralenti	filler	accent	VOT	b_p	1	1	1023.7471	1	3.894883e+02	2.072617e+02
sub_22	B4	19	palissade	lendemain	filler	no_accent	VOT	b_p	2	2	903.0495	1	1.068879e+03	1.772969e+02
sub_22	B4	20	ceinturon	seigneurie	test	accent	nasalization	5_E	1	1	1120.2777	1	3.828008e+02	1.681562e+02
sub_22	B4	21	chapelet	champignon	test	no_accent	nasalization	@_a	2	2	1088.0588	1	1.049766e+03	1.815234e+02
sub_22	B4	22	lampadaire	pâturage	filler	accent	nasalization	@_a	1	1	1080.3759	1	3.605195e+02	1.901797e+02
sub_22	B4	23	pesanteur	potiron	test	accent	rounding	2_o	1	1	1313.6098	1	3.835469e+02	1.758125e+02
sub_22	B4	24	baratin	châtiment	filler	accent	VOT	b_p	2	1	1146.0967	0	4.199375e+02	1.668984e+02
sub_22	B4	25	patelin	chandeleur	filler	no_accent	VOT	b_p	1	1	840.0973	1	4.115391e+02	1.647305e+02
sub_22	B4	26	confiture	coqueluche	test	accent	nasalization	X_O	2	2	1334.4218	1	1.055195e+03	1.926641e+02
sub_22	B4	27	perroquet	baisemain	test	no_accent	VOT	b_p	1	1	817.8671	1	4.033398e+02	1.661836e+02
sub_22	B4	28	soupirant	supérette	test	no_accent	rounding	y_u	1	1	1065.4383	1	3.600352e+02	1.636992e+02
sub_22	B4	29	randonnée	ralenti	test	accent	nasalization	@_a	2	2	1224.1427	1	1.023027e+03	1.926367e+02
sub_22	B4	30	pâturage	lampadaire	filler	no_accent	VOT	b_p	2	2	914.5088	1	1.026516e+03	2.107500e+02
sub_22	B4	31	baisemain	perroquet	test	accent	VOT	b_p	2	2	1220.3137	1	1.062137e+03	1.926641e+02
sub_22	B4	32	champignon	paperasse	filler	accent	nasalization	@_a	2	2	1088.47	1	1.060422e+03	1.780703e+02
sub_22	B4	33	chansonnette	chapiteau	test	accent	nasalization	@_a	2	2	1390.5002	1	1.033426e+03	1.765820e+02
sub_22	B4	34	penderie	chapiteau	filler	accent	nasalization	@_a	1	1	940.9084	1	3.894883e+02	1.540430e+02
sub_22	B4	35	lavabo	betterave	filler	no_accent	nasalization	@_a	2	2	957.1189	1	1.063137e+03	1.867227e+02
sub_22	B4	36	betterave	lavabo	filler	accent	VOT	b_p	1	1	1391.7639	1	3.694336e+02	1.953789e+02
sub_22	B4	37	pèlerin	betterave	test	no_accent	VOT	b_p	1	1	874.1176	1	3.907148e+02	1.874648e+02
sub_22	B4	38	seigneurie	ceinturon	test	no_accent	nasalization	5_E	1	1	1157.4475	1	3.939414e+02	1.701250e+02
sub_22	B4	39	potiron	gâterie	filler	no_accent	rounding	2_o	2	2	1065.9449	1	1.038625e+03	2.184023e+02
sub_22	B4	40	paperasse	champignon	filler	no_accent	nasalization	@_a	2	2	907.4174	1	1.083762e+03	1.963789e+02
