subID	block	trial_number	target	distractor	trial_type	item_type	error_type	error_subtype	screen_side	response_screen	rt	correct	mouse_final_x	mouse_final_y
sub_13	B1	1	chansonnette	perroquet	filler	accent	nasalization	@_a	2	0	2000.0247	0	7.135703e+02	7.187422e+02
sub_13	B1	2	pâturage	baluchon	test	no_accent	VOT	b_p	1	1	1246.7664	1	3.662070e+02	1.896953e+02
sub_13	B1	3	champignon	chapelet	test	accent	nasalization	@_a	1	1	1599.7551	1	3.657188e+02	1.500430e+02
sub_13	B1	4	lavabo	lampadaire	test	no_accent	nasalization	@_a	2	2	1831.6006	1	1.039426e+03	1.797227e+02
sub_13	B1	5	seigneurie	bibelot	filler	no_accent	nasalization	5_E	1	1	1111.4772	1	3.830586e+02	1.688398e+02
sub_13	B1	6	chapiteau	penderie	filler	no_accent	nasalization	@_a	1	1	1064.869	1	3.954297e+02	1.904375e+02
sub_13	B1	7	baratin	châtiment	filler	accent	VOT	b_p	1	2	1037.0224	0	1.088387e+03	1.844961e+02
sub_13	B1	8	ceinturon	seigneurie	test	accent	nasalization	5_E	1	1	1123.0566	1	3.664609e+02	1.778125e+02
sub_13	B1	9	lendemain	palissade	filler	accent	nasalization	@_a	2	2	1238.934	1	1.036398e+03	2.243438e+02
sub_13	B1	10	penderie	paperasse	test	accent	nasalization	@_a	2	2	1076.6481	1	1.098043e+03	1.919219e+02
sub_13	B1	11	coqueluche	confiture	test	no_accent	nasalization	X_O	1	1	1550.1472	1	3.290977e+02	1.755820e+02
sub_13	B1	12	canapé	gâterie	test	no_accent	VOT	g_k	1	1	891.1556	1	4.214258e+02	1.993516e+02
sub_13	B1	13	bâtiment	patelin	test	accent	VOT	b_p	1	1	1874.7964	1	3.753750e+02	1.884375e+02
sub_13	B1	14	chapelet	baluchon	filler	no_accent	nasalization	@_a	1	1	1314.0747	1	3.828008e+02	1.874648e+02
sub_13	B1	15	chandeleur	patelin	filler	accent	nasalization	@_a	1	1	1077.6538	1	3.642344e+02	1.785547e+02
sub_13	B1	16	supérette	pourriture	filler	accent	rounding	y_u	1	1	896.1507	1	3.902305e+02	1.592422e+02
sub_13	B1	17	randonnée	ralenti	test	accent	nasalization	@_a	1	1	923.8074	1	4.117695e+02	2.000938e+02
sub_13	B1	18	patelin	chandeleur	filler	no_accent	VOT	b_p	2	2	1117.0698	1	1.072047e+03	1.911797e+02
sub_13	B1	19	betterave	lavabo	filler	accent	VOT	b_p	2	2	1921.6359	1	1.042598e+03	1.726133e+02
sub_13	B1	20	palissade	baratin	test	no_accent	VOT	b_p	2	2	906.04	1	1.072047e+03	1.510742e+02
sub_13	B1	21	baluchon	pâturage	test	accent	VOT	b_p	1	1	1830.8618	1	3.506367e+02	1.780977e+02
sub_13	B1	22	gâterie	canapé	test	accent	VOT	g_k	1	1	1101.0635	1	4.238789e+02	1.760703e+02
sub_13	B1	23	pourriture	boucherie	test	no_accent	VOT	b_p	2	2	1322.2653	1	1.058195e+03	1.733555e+02
sub_13	B1	24	passerelle	pendentif	test	no_accent	nasalization	@_a	1	1	999.2739	1	3.516094e+02	1.703828e+02
sub_13	B1	25	boucherie	pourriture	test	accent	VOT	b_p	2	2	966.0185	1	1.047539e+03	1.792969e+02
sub_13	B1	26	paperasse	champignon	filler	no_accent	nasalization	@_a	2	2	973.2928	1	1.082445e+03	1.622148e+02
sub_13	B1	27	ralenti	bâtiment	filler	no_accent	nasalization	@_a	2	2	1921.8298	1	1.041598e+03	1.817812e+02
sub_13	B1	28	pissenlit	confiture	filler	no_accent	VOT	b_p	2	2	1267.6085	1	1.062164e+03	1.852383e+02
sub_13	B1	29	soupirant	supérette	test	no_accent	rounding	y_u	1	0	2000.0234	0	8.319492e+02	1.976094e+02
sub_13	B1	30	bibelot	seigneurie	filler	accent	VOT	b_p	1	1	1449.9168	1	3.798320e+02	1.815234e+02
sub_13	B1	31	pendentif	passerelle	test	accent	nasalization	@_a	2	2	1089.4071	1	1.060422e+03	1.835234e+02
sub_13	B1	32	pesanteur	soupirant	filler	accent	rounding	2_o	1	1	859.2583	1	3.709180e+02	1.778125e+02
sub_13	B1	33	baisemain	perroquet	test	accent	VOT	b_p	2	2	994.9126	1	1.080219e+03	1.911797e+02
sub_13	B1	34	potiron	gâterie	filler	no_accent	rounding	2_o	2	2	1089.0037	1	1.079246e+03	1.837539e+02
sub_13	B1	35	châtiment	chandeleur	test	no_accent	nasalization	@_a	2	2	1346.2446	1	1.048281e+03	1.674141e+02
sub_13	B1	36	laverie	baisemain	filler	no_accent	nasalization	@_a	2	2	1363.7423	1	1.063395e+03	1.681562e+02
sub_13	B1	37	confiture	coqueluche	test	accent	nasalization	X_O	2	2	1347.8387	1	1.102984e+03	1.694141e+02
sub_13	B1	38	pèlerin	randonnée	filler	no_accent	VOT	b_p	2	0	2000.0479	0	1.045797e+03	1.738711e+02
sub_13	B1	39	perroquet	baisemain	test	no_accent	VOT	b_p	2	2	1229.0782	1	1.068336e+03	1.852383e+02
sub_13	B1	40	lampadaire	lavabo	test	accent	nasalization	@_a	1	1	1065.4954	1	3.545781e+02	1.651836e+02
sub_13	B2	1	chapiteau	chansonnette	test	no_accent	nasalization	@_a	1	1	942.927	1	3.902305e+02	1.815234e+02
sub_13	B2	2	champignon	paperasse	filler	accent	nasalization	@_a	2	2	1572.0513	1	1.045824e+03	1.859805e+02
sub_13	B2	3	chansonnette	chapiteau	test	accent	nasalization	@_a	2	2	1269.7829	1	1.061164e+03	1.876953e+02
sub_13	B2	4	chapelet	champignon	test	no_accent	nasalization	@_a	1	1	1235.3284	1	3.649766e+02	1.901797e+02
sub_13	B2	5	boucherie	coqueluche	filler	accent	VOT	b_p	1	1	933.6584	1	3.701758e+02	1.785547e+02
sub_13	B2	6	ceinturon	passerelle	filler	accent	nasalization	5_E	2	2	1327.9962	1	1.065363e+03	1.867227e+02
sub_13	B2	7	palissade	lendemain	filler	no_accent	VOT	b_p	2	2	870.2753	1	1.052738e+03	1.748398e+02
sub_13	B2	8	chandeleur	châtiment	test	accent	nasalization	@_a	2	2	1077.6842	1	1.028969e+03	1.807812e+02
sub_13	B2	9	randonnée	pèlerin	filler	accent	nasalization	@_a	2	1	1674.4548	0	3.377539e+02	1.701250e+02
sub_13	B2	10	bâtiment	ralenti	filler	accent	VOT	b_p	1	1	1010.3392	1	3.813164e+02	1.867227e+02
sub_13	B2	11	seigneurie	ceinturon	test	no_accent	nasalization	5_E	2	2	745.1936	1	1.050508e+03	1.748398e+02
sub_13	B2	12	bibelot	pissenlit	test	accent	VOT	b_p	2	2	987.7605	1	1.043824e+03	1.792969e+02
sub_13	B2	13	ralenti	randonnée	test	no_accent	nasalization	@_a	1	1	1190.7225	1	3.815742e+02	1.864375e+02
sub_13	B2	14	patelin	bâtiment	test	no_accent	VOT	b_p	1	1	1258.8294	1	3.538672e+02	1.874102e+02
sub_13	B2	15	betterave	pèlerin	test	accent	VOT	b_p	1	1	841.9834	1	3.813164e+02	1.817539e+02
sub_13	B2	16	gâterie	potiron	filler	accent	VOT	g_k	2	2	1067.2256	1	1.060164e+03	1.874648e+02
sub_13	B2	17	paperasse	penderie	test	no_accent	nasalization	@_a	2	2	729.3016	1	1.058195e+03	1.607305e+02
sub_13	B2	18	coqueluche	boucherie	filler	no_accent	nasalization	X_O	1	1	819.2676	1	3.746328e+02	1.817539e+02
sub_13	B2	19	lavabo	betterave	filler	no_accent	nasalization	@_a	1	1	1078.4568	1	3.835469e+02	1.896953e+02
sub_13	B2	20	laverie	lendemain	test	no_accent	nasalization	@_a	2	2	1055.6891	1	1.034910e+03	1.874648e+02
sub_13	B2	21	lendemain	laverie	test	accent	nasalization	@_a	1	1	1471.6222	1	3.533203e+02	1.659297e+02
sub_13	B2	22	pissenlit	bibelot	test	no_accent	VOT	b_p	1	1	902.7536	1	3.998867e+02	1.844961e+02
sub_13	B2	23	baluchon	chapelet	filler	accent	VOT	b_p	1	1	1312.8906	1	3.828008e+02	1.862109e+02
sub_13	B2	24	canapé	pendentif	filler	no_accent	VOT	g_k	2	2	1049.8222	1	1.048281e+03	1.740977e+02
sub_13	B2	25	châtiment	baratin	filler	no_accent	nasalization	@_a	1	1	909.0486	1	3.511211e+02	1.847227e+02
sub_13	B2	26	penderie	chapiteau	filler	accent	nasalization	@_a	2	2	794.9836	1	1.083188e+03	1.577578e+02
sub_13	B2	27	baisemain	laverie	filler	accent	VOT	b_p	2	2	725.453	1	1.040109e+03	1.859805e+02
sub_13	B2	28	potiron	pesanteur	test	no_accent	rounding	2_o	2	2	1347.7321	1	1.040367e+03	1.666719e+02
sub_13	B2	29	pâturage	lampadaire	filler	no_accent	VOT	b_p	1	1	920.3022	1	3.686914e+02	1.681562e+02
sub_13	B2	30	passerelle	ceinturon	filler	no_accent	nasalization	@_a	1	1	795.8012	1	3.382383e+02	1.800703e+02
sub_13	B2	31	perroquet	chansonnette	filler	no_accent	VOT	b_p	2	2	886.5867	1	1.100273e+03	1.748398e+02
sub_13	B2	32	soupirant	pesanteur	filler	no_accent	rounding	y_u	1	1	1807.7034	1	3.971719e+02	1.832383e+02
sub_13	B2	33	pèlerin	betterave	test	no_accent	VOT	b_p	2	2	1032.631	1	1.043824e+03	1.867227e+02
sub_13	B2	34	pendentif	canapé	filler	accent	nasalization	@_a	1	1	909.5552	1	3.761172e+02	1.830117e+02
sub_13	B2	35	confiture	pissenlit	filler	accent	nasalization	X_O	2	2	1198.8737	1	1.084418e+03	1.817812e+02
sub_13	B2	36	supérette	soupirant	test	accent	rounding	y_u	1	1	829.1502	1	3.946875e+02	1.941523e+02
sub_13	B2	37	lampadaire	pâturage	filler	accent	nasalization	@_a	1	1	774.2564	1	3.790898e+02	1.904375e+02
sub_13	B2	38	pourriture	supérette	filler	no_accent	VOT	b_p	1	1	1020.0935	1	3.501211e+02	1.792969e+02
sub_13	B2	39	pesanteur	potiron	test	accent	rounding	2_o	2	2	1381.6753	1	1.103242e+03	1.766133e+02
sub_13	B2	40	baratin	palissade	test	accent	VOT	b_p	2	2	1557.6187	1	1.049766e+03	1.882109e+02
sub_13	B3	1	chapiteau	chansonnette	test	no_accent	nasalization	@_a	1	1	1132.369	1	3.761172e+02	1.882109e+02
sub_13	B3	2	lampadaire	pâturage	filler	accent	nasalization	@_a	1	1	1076.9665	1	3.649766e+02	1.837539e+02
sub_13	B3	3	boucherie	coqueluche	filler	accent	VOT	b_p	1	1	1127.7556	1	3.820586e+02	2.030352e+02
sub_13	B3	4	châtiment	baratin	filler	no_accent	nasalization	@_a	1	1	829.026	1	3.850312e+02	1.733555e+02
sub_13	B3	5	laverie	lendemain	test	no_accent	nasalization	@_a	2	2	1075.4448	1	1.015602e+03	1.777812e+02
sub_13	B3	6	confiture	pissenlit	filler	accent	nasalization	X_O	2	2	994.7823	1	1.046797e+03	1.775547e+02
sub_13	B3	7	ceinturon	seigneurie	test	accent	nasalization	5_E	1	1	1122.9565	1	3.456680e+02	1.792969e+02
sub_13	B3	8	champignon	paperasse	filler	accent	nasalization	@_a	2	2	1173.9706	1	1.063879e+03	1.889531e+02
sub_13	B3	9	coqueluche	boucherie	filler	no_accent	nasalization	X_O	1	1	889.7232	1	3.649766e+02	1.726133e+02
sub_13	B3	10	pesanteur	potiron	test	accent	rounding	2_o	2	2	909.371	1	1.063137e+03	1.755820e+02
sub_13	B3	11	canapé	pendentif	filler	no_accent	VOT	g_k	2	2	1077.1858	1	1.069820e+03	1.986094e+02
sub_13	B3	12	pourriture	boucherie	test	no_accent	VOT	b_p	2	2	966.408	1	1.049023e+03	1.778125e+02
sub_13	B3	13	penderie	paperasse	test	accent	nasalization	@_a	2	2	1190.1074	1	1.020059e+03	1.688984e+02
sub_13	B3	14	chapelet	baluchon	filler	no_accent	nasalization	@_a	1	1	972.9612	1	3.872578e+02	1.882109e+02
sub_13	B3	15	patelin	bâtiment	test	no_accent	VOT	b_p	1	1	896.7532	1	3.761172e+02	1.986094e+02
sub_13	B3	16	bâtiment	ralenti	filler	accent	VOT	b_p	1	1	1325.5932	1	3.575508e+02	1.750977e+02
sub_13	B3	17	potiron	pesanteur	test	no_accent	rounding	2_o	2	2	1257.7366	1	1.057449e+03	1.886953e+02
sub_13	B3	18	baluchon	chapelet	filler	accent	VOT	b_p	1	1	864.7688	1	3.753750e+02	1.971211e+02
sub_13	B3	19	pâturage	baluchon	test	no_accent	VOT	b_p	1	1	1279.2512	1	3.664609e+02	1.889531e+02
sub_13	B3	20	baisemain	laverie	filler	accent	VOT	b_p	2	2	943.1487	1	1.076504e+03	1.815234e+02
sub_13	B3	21	ralenti	bâtiment	filler	no_accent	nasalization	@_a	2	2	1040.944	1	1.066105e+03	1.911797e+02
sub_13	B3	22	randonnée	ralenti	test	accent	nasalization	@_a	1	1	954.9793	1	3.790898e+02	1.800391e+02
sub_13	B3	23	pissenlit	confiture	filler	no_accent	VOT	b_p	2	2	940.1592	1	1.077988e+03	1.837539e+02
sub_13	B3	24	gâterie	canapé	test	accent	VOT	g_k	1	1	783.5508	1	3.753750e+02	1.792969e+02
sub_13	B3	25	palissade	lendemain	filler	no_accent	VOT	b_p	2	2	786.2953	1	1.063137e+03	1.792969e+02
sub_13	B3	26	chansonnette	chapiteau	test	accent	nasalization	@_a	2	2	1142.545	1	1.043082e+03	1.664141e+02
sub_13	B3	27	paperasse	champignon	filler	no_accent	nasalization	@_a	2	2	744.4335	1	1.094328e+03	1.951211e+02
sub_13	B3	28	pendentif	passerelle	test	accent	nasalization	@_a	2	2	928.6788	1	1.075020e+03	1.575000e+02
sub_13	B3	29	baratin	châtiment	filler	accent	VOT	b_p	1	1	718.5515	1	3.842891e+02	1.993516e+02
sub_13	B3	30	lendemain	laverie	test	accent	nasalization	@_a	1	1	935.5088	1	3.716602e+02	1.852383e+02
sub_13	B3	31	perroquet	baisemain	test	no_accent	VOT	b_p	2	2	944.023	1	1.026742e+03	1.911797e+02
sub_13	B3	32	soupirant	pesanteur	filler	no_accent	rounding	y_u	1	1	1522.2665	1	3.553789e+02	1.728398e+02
sub_13	B3	33	betterave	pèlerin	test	accent	VOT	b_p	1	1	920.1056	1	3.553203e+02	1.807812e+02
sub_13	B3	34	bibelot	pissenlit	test	accent	VOT	b_p	2	2	1055.2517	1	1.060164e+03	1.822695e+02
sub_13	B3	35	lavabo	betterave	filler	no_accent	nasalization	@_a	1	1	965.996	1	3.842891e+02	1.822695e+02
sub_13	B3	36	supérette	pourriture	filler	accent	rounding	y_u	1	1	1198.0471	1	3.672070e+02	1.874648e+02
sub_13	B3	37	pèlerin	betterave	test	no_accent	VOT	b_p	2	2	929.6135	1	1.031941e+03	1.941523e+02
sub_13	B3	38	seigneurie	bibelot	filler	no_accent	nasalization	5_E	1	1	974.9344	1	3.753750e+02	1.844961e+02
sub_13	B3	39	passerelle	pendentif	test	no_accent	nasalization	@_a	1	1	1044.1866	1	3.813164e+02	1.807812e+02
sub_13	B3	40	chandeleur	patelin	filler	accent	nasalization	@_a	1	1	1144.8579	1	3.686914e+02	1.671562e+02
sub_13	B4	1	chapiteau	penderie	filler	no_accent	nasalization	@_a	1	1	1089.3436	1	4.102812e+02	1.748398e+02
sub_13	B4	2	pourriture	supérette	filler	no_accent	VOT	b_p	1	1	818.1701	1	3.909727e+02	1.872109e+02
sub_13	B4	3	palissade	baratin	test	no_accent	VOT	b_p	2	2	876.1379	1	1.051996e+03	1.815234e+02
sub_13	B4	4	baisemain	perroquet	test	accent	VOT	b_p	2	2	977.6171	1	1.018570e+03	2.015781e+02
sub_13	B4	5	boucherie	pourriture	test	accent	VOT	b_p	2	2	877.1378	1	1.057195e+03	1.859805e+02
sub_13	B4	6	penderie	chapiteau	filler	accent	nasalization	@_a	2	2	1111.7805	1	1.039141e+03	2.070352e+02
sub_13	B4	7	ceinturon	passerelle	filler	accent	nasalization	5_E	2	2	1199.7969	1	1.025258e+03	2.015781e+02
sub_13	B4	8	bâtiment	patelin	test	accent	VOT	b_p	1	1	790.9298	1	3.768594e+02	1.807812e+02
sub_13	B4	9	baluchon	pâturage	test	accent	VOT	b_p	1	1	898.4475	1	3.924570e+02	1.778125e+02
sub_13	B4	10	pissenlit	bibelot	test	no_accent	VOT	b_p	1	1	780.0926	1	4.125117e+02	1.934102e+02
sub_13	B4	11	potiron	gâterie	filler	no_accent	rounding	2_o	2	2	919.9815	1	1.031941e+03	1.696406e+02
sub_13	B4	12	pâturage	lampadaire	filler	no_accent	VOT	b_p	1	1	523.8932	1	4.177109e+02	1.971211e+02
sub_13	B4	13	lendemain	palissade	filler	accent	nasalization	@_a	2	2	930.7337	1	1.066105e+03	1.792969e+02
sub_13	B4	14	chapelet	champignon	test	no_accent	nasalization	@_a	1	1	1066.8355	1	3.842891e+02	1.755820e+02
sub_13	B4	15	paperasse	penderie	test	no_accent	nasalization	@_a	2	2	880.6895	1	1.092844e+03	1.770703e+02
sub_13	B4	16	champignon	chapelet	test	accent	nasalization	@_a	1	1	728.8741	1	3.508672e+02	1.718711e+02
sub_13	B4	17	supérette	soupirant	test	accent	rounding	y_u	1	1	1186.3988	1	3.979141e+02	1.664141e+02
sub_13	B4	18	baratin	palissade	test	accent	VOT	b_p	2	2	901.5804	1	1.036398e+03	1.874648e+02
sub_13	B4	19	perroquet	chansonnette	filler	no_accent	VOT	b_p	2	2	881.1859	1	1.062047e+03	1.751211e+02
sub_13	B4	20	seigneurie	ceinturon	test	no_accent	nasalization	5_E	2	2	1043.2094	1	1.023027e+03	1.934102e+02
sub_13	B4	21	lavabo	lampadaire	test	no_accent	nasalization	@_a	2	2	1526.7382	1	1.083188e+03	1.768398e+02
sub_13	B4	22	canapé	gâterie	test	no_accent	VOT	g_k	1	1	999.865	1	NA	1.867227e+02
sub_13	B4	23	pendentif	canapé	filler	accent	nasalization	@_a	1	1	968.9401	1	3.501211e+02	1.463594e+02
sub_13	B4	24	betterave	lavabo	filler	accent	VOT	b_p	2	2	1566.5834	1	1.025543e+03	1.874648e+02
sub_13	B4	25	ralenti	randonnée	test	no_accent	nasalization	@_a	1	1	1381.6017	1	3.627500e+02	1.874648e+02
sub_13	B4	26	châtiment	chandeleur	test	no_accent	nasalization	@_a	2	2	993.3114	1	1.038625e+03	1.971211e+02
sub_13	B4	27	pesanteur	soupirant	filler	accent	rounding	2_o	1	1	1562.1961	1	3.986562e+02	1.792969e+02
sub_13	B4	28	lampadaire	lavabo	test	accent	nasalization	@_a	1	1	1269.8333	1	3.642344e+02	1.770703e+02
sub_13	B4	29	randonnée	pèlerin	filler	accent	nasalization	@_a	2	2	1337.1712	1	1.042340e+03	1.733555e+02
sub_13	B4	30	coqueluche	confiture	test	no_accent	nasalization	X_O	1	1	922.5624	1	3.954297e+02	1.688984e+02
sub_13	B4	31	soupirant	supérette	test	no_accent	rounding	y_u	1	1	1346.9173	1	3.642344e+02	1.644414e+02
sub_13	B4	32	gâterie	potiron	filler	accent	VOT	g_k	2	2	1201.8833	1	1.049023e+03	1.604727e+02
sub_13	B4	33	laverie	baisemain	filler	no_accent	nasalization	@_a	2	2	1650.0455	1	1.038141e+03	1.844961e+02
sub_13	B4	34	patelin	chandeleur	filler	no_accent	VOT	b_p	2	2	1621.8556	1	1.020801e+03	1.896953e+02
sub_13	B4	35	confiture	coqueluche	test	accent	nasalization	X_O	2	2	925.0698	1	1.057195e+03	1.844961e+02
sub_13	B4	36	passerelle	ceinturon	filler	no_accent	nasalization	@_a	1	1	826.159	1	4.050859e+02	1.726133e+02
sub_13	B4	37	bibelot	seigneurie	filler	accent	VOT	b_p	1	1	883.7958	1	NA	1.797539e+02
sub_13	B4	38	pèlerin	randonnée	filler	no_accent	VOT	b_p	2	2	867.5917	1	1.049023e+03	1.934102e+02
sub_13	B4	39	chansonnette	perroquet	filler	accent	nasalization	@_a	2	2	1359.1931	1	1.098273e+03	1.765820e+02
sub_13	B4	40	chandeleur	châtiment	test	accent	nasalization	@_a	2	2	774.8789	1	1.063879e+03	1.651836e+02
