subID	block	trial_number	target	distractor	trial_type	item_type	error_type	error_subtype	screen_side	response_screen	rt	correct	mouse_final_x	mouse_final_y
sub_02	B1	1	confiture	coqueluche	test	accent	nasalization	X_O	2	2	1988.1105	1	1.056508e+03	1.963516e+02
sub_02	B1	2	ceinturon	seigneurie	test	accent	nasalization	5_E	2	2	1932.3467	1	1.078008e+03	1.332461e+02
sub_02	B1	3	supérette	soupirant	test	accent	rounding	y_u	2	0	2000.027	0	1.113383e+03	1.065117e+02
sub_02	B1	4	soupirant	pesanteur	filler	no_accent	rounding	y_u	1	1	1498.7534	1	3.761172e+02	1.882109e+02
sub_02	B1	5	champignon	paperasse	filler	accent	nasalization	@_a	1	1	1762.7882	1	3.614922e+02	2.064922e+02
sub_02	B1	6	chapiteau	penderie	filler	no_accent	nasalization	@_a	2	2	1536.7318	1	1.023285e+03	2.245742e+02
sub_02	B1	7	pissenlit	bibelot	test	no_accent	VOT	b_p	2	2	897.9113	1	1.054965e+03	2.146914e+02
sub_02	B1	8	baluchon	chapelet	filler	accent	VOT	b_p	1	1	1371.1577	1	3.709180e+02	2.025508e+02
sub_02	B1	9	randonnée	pèlerin	filler	accent	nasalization	@_a	1	2	1458.8059	0	1.057707e+03	1.686406e+02
sub_02	B1	10	châtiment	chandeleur	test	no_accent	nasalization	@_a	1	1	1055.6869	1	4.043398e+02	2.089766e+02
sub_02	B1	11	coqueluche	boucherie	filler	no_accent	nasalization	X_O	2	2	1122.6858	1	1.107699e+03	1.644414e+02
sub_02	B1	12	canapé	gâterie	test	no_accent	VOT	g_k	1	1	875.836	1	4.110273e+02	1.941523e+02
sub_02	B1	13	pèlerin	betterave	test	no_accent	VOT	b_p	1	1	874.4422	1	4.090547e+02	1.765547e+02
sub_02	B1	14	laverie	lendemain	test	no_accent	nasalization	@_a	1	1	1325.5409	1	3.887461e+02	1.574727e+02
sub_02	B1	15	paperasse	penderie	test	no_accent	nasalization	@_a	2	2	1414.9781	1	1.049023e+03	1.446172e+02
sub_02	B1	16	baisemain	perroquet	test	accent	VOT	b_p	1	0	2000.0521	0	2.654219e+02	2.169180e+02
sub_02	B1	17	patelin	bâtiment	test	no_accent	VOT	b_p	1	1	1223.9264	1	3.877461e+02	2.163750e+02
sub_02	B1	18	lavabo	betterave	filler	no_accent	nasalization	@_a	2	2	1786.7534	1	1.039398e+03	2.191172e+02
sub_02	B1	19	perroquet	baisemain	test	no_accent	VOT	b_p	2	2	1550.4365	1	1.099016e+03	1.750703e+02
sub_02	B1	20	pourriture	supérette	filler	no_accent	VOT	b_p	2	2	1651.2936	1	1.092617e+03	1.683555e+02
sub_02	B1	21	chandeleur	patelin	filler	accent	nasalization	@_a	1	1	729.2012	1	4.090547e+02	2.263164e+02
sub_02	B1	22	penderie	paperasse	test	accent	nasalization	@_a	1	1	593.9531	1	4.107695e+02	1.543008e+02
sub_02	B1	23	pesanteur	soupirant	filler	accent	rounding	2_o	1	1	763.2977	1	3.914883e+02	1.919219e+02
sub_02	B1	24	betterave	pèlerin	test	accent	VOT	b_p	1	1	864.7258	1	3.914570e+02	1.721250e+02
sub_02	B1	25	gâterie	potiron	filler	accent	VOT	g_k	1	1	886.9983	1	3.746328e+02	1.971211e+02
sub_02	B1	26	chapelet	baluchon	filler	no_accent	nasalization	@_a	1	1	797.4391	1	4.102812e+02	1.733555e+02
sub_02	B1	27	lampadaire	lavabo	test	accent	nasalization	@_a	1	1	785.9549	1	4.174531e+02	2.186602e+02
sub_02	B1	28	seigneurie	ceinturon	test	no_accent	nasalization	5_E	2	2	864.4763	1	1.101500e+03	1.337617e+02
sub_02	B1	29	lendemain	laverie	test	accent	nasalization	@_a	1	1	936.9944	1	3.924570e+02	2.119766e+02
sub_02	B1	30	bâtiment	ralenti	filler	accent	VOT	b_p	1	0	2000.0664	0	4.136523e+02	1.968359e+02
sub_02	B1	31	palissade	lendemain	filler	no_accent	VOT	b_p	1	1	772.5037	1	3.981406e+02	1.777930e+02
sub_02	B1	32	chansonnette	perroquet	filler	accent	nasalization	@_a	2	2	908.2912	1	1.017086e+03	2.000938e+02
sub_02	B1	33	ralenti	randonnée	test	no_accent	nasalization	@_a	1	1	1651.7498	1	3.617500e+02	1.958633e+02
sub_02	B1	34	potiron	pesanteur	test	no_accent	rounding	2_o	2	2	1145.3919	1	1.075020e+03	1.327617e+02
sub_02	B1	35	baratin	châtiment	filler	accent	VOT	b_p	2	2	782.8534	1	1.098023e+03	1.430625e+02
sub_02	B1	36	boucherie	coqueluche	filler	accent	VOT	b_p	2	2	723.0655	1	1.014375e+03	2.176602e+02
sub_02	B1	37	bibelot	seigneurie	filler	accent	VOT	b_p	2	2	774.3819	1	1.067105e+03	1.342031e+02
sub_02	B1	38	pâturage	baluchon	test	no_accent	VOT	b_p	2	2	1101.0693	1	1.022285e+03	2.040352e+02
sub_02	B1	39	pendentif	passerelle	test	accent	nasalization	@_a	2	2	1353.6771	1	1.017316e+03	2.250898e+02
sub_02	B1	40	passerelle	ceinturon	filler	no_accent	nasalization	@_a	2	2	684.0709	1	1.066848e+03	1.659297e+02
sub_02	B2	1	ceinturon	passerelle	filler	accent	nasalization	5_E	1	1	785.4264	1	4.092812e+02	1.948945e+02
sub_02	B2	2	baluchon	pâturage	test	accent	VOT	b_p	1	1	695.4447	1	3.939414e+02	2.104922e+02
sub_02	B2	3	pissenlit	confiture	filler	no_accent	VOT	b_p	1	1	964.2168	1	3.917148e+02	2.253438e+02
sub_02	B2	4	châtiment	baratin	filler	no_accent	nasalization	@_a	1	1	848.0815	1	4.095391e+02	1.636992e+02
sub_02	B2	5	coqueluche	confiture	test	no_accent	nasalization	X_O	1	1	1747.2464	1	3.939727e+02	2.132031e+02
sub_02	B2	6	chandeleur	châtiment	test	accent	nasalization	@_a	2	2	785.9307	1	1.052996e+03	1.730977e+02
sub_02	B2	7	baisemain	laverie	filler	accent	VOT	b_p	2	2	1301.2593	1	1.053480e+03	1.564727e+02
sub_02	B2	8	laverie	baisemain	filler	no_accent	nasalization	@_a	2	2	1400.9507	1	1.104727e+03	1.347344e+02
sub_02	B2	9	paperasse	champignon	filler	no_accent	nasalization	@_a	2	2	902.6057	1	1.094074e+03	1.961211e+02
sub_02	B2	10	gâterie	canapé	test	accent	VOT	g_k	2	2	1055.9283	1	1.088359e+03	2.045508e+02
sub_02	B2	11	randonnée	ralenti	test	accent	nasalization	@_a	1	1	1583.7442	1	NA	2.253164e+02
sub_02	B2	12	chapiteau	chansonnette	test	no_accent	nasalization	@_a	2	2	661.9412	1	1.023770e+03	2.030625e+02
sub_02	B2	13	patelin	chandeleur	filler	no_accent	VOT	b_p	1	1	1438.4449	1	3.612617e+02	1.537578e+02
sub_02	B2	14	penderie	chapiteau	filler	accent	nasalization	@_a	2	2	1066.8386	1	1.110668e+03	1.492852e+02
sub_02	B2	15	champignon	chapelet	test	accent	nasalization	@_a	1	1	1245.495	1	3.828008e+02	1.594727e+02
sub_02	B2	16	lavabo	lampadaire	test	no_accent	nasalization	@_a	1	1	1099.7514	1	3.954297e+02	1.582148e+02
sub_02	B2	17	supérette	pourriture	filler	accent	rounding	y_u	1	1	874.4898	1	4.003711e+02	2.082617e+02
sub_02	B2	18	pèlerin	randonnée	filler	no_accent	VOT	b_p	1	1	1335.3852	1	3.845469e+02	1.612148e+02
sub_02	B2	19	soupirant	supérette	test	no_accent	rounding	y_u	1	1	1312.5172	1	3.649492e+02	2.097500e+02
sub_02	B2	20	confiture	pissenlit	filler	accent	nasalization	X_O	2	2	1168.0938	1	1.024027e+03	2.223438e+02
sub_02	B2	21	baratin	palissade	test	accent	VOT	b_p	2	1	582.8584	0	3.946875e+02	1.681562e+02
sub_02	B2	22	ralenti	bâtiment	filler	no_accent	nasalization	@_a	1	0	2000.0457	0	4.194805e+02	2.389141e+02
sub_02	B2	23	boucherie	pourriture	test	accent	VOT	b_p	1	1	1482.2462	1	3.766328e+02	1.810117e+02
sub_02	B2	24	potiron	gâterie	filler	no_accent	rounding	2_o	1	1	1135.0782	1	3.825469e+02	2.139492e+02
sub_02	B2	25	pourriture	boucherie	test	no_accent	VOT	b_p	2	2	841.1709	1	1.062395e+03	2.090039e+02
sub_02	B2	26	seigneurie	bibelot	filler	no_accent	nasalization	5_E	2	2	1213.6194	1	1.051508e+03	2.116914e+02
sub_02	B2	27	betterave	lavabo	filler	accent	VOT	b_p	2	2	1368.966	1	1.059906e+03	1.699531e+02
sub_02	B2	28	lendemain	palissade	filler	accent	nasalization	@_a	2	2	1258.7294	1	1.101758e+03	1.718398e+02
sub_02	B2	29	chapelet	champignon	test	no_accent	nasalization	@_a	2	2	1326.0849	1	1.069078e+03	1.723555e+02
sub_02	B2	30	palissade	baratin	test	no_accent	VOT	b_p	2	2	1065.5095	1	1.043824e+03	1.882109e+02
sub_02	B2	31	canapé	pendentif	filler	no_accent	VOT	g_k	1	1	1820.4929	1	4.058281e+02	2.260586e+02
sub_02	B2	32	bibelot	pissenlit	test	accent	VOT	b_p	2	2	1087.281	1	1.049023e+03	2.198906e+02
sub_02	B2	33	pesanteur	potiron	test	accent	rounding	2_o	2	2	1235.1795	1	1.069078e+03	1.993516e+02
sub_02	B2	34	lampadaire	pâturage	filler	accent	nasalization	@_a	2	2	1210.5884	1	1.046055e+03	1.837539e+02
sub_02	B2	35	bâtiment	patelin	test	accent	VOT	b_p	1	1	1539.2039	1	3.501211e+02	2.258320e+02
sub_02	B2	36	chansonnette	chapiteau	test	accent	nasalization	@_a	2	2	1269.1805	1	1.064621e+03	2.062617e+02
sub_02	B2	37	passerelle	pendentif	test	no_accent	nasalization	@_a	1	1	1426.667	1	4.132539e+02	2.111758e+02
sub_02	B2	38	pâturage	lampadaire	filler	no_accent	VOT	b_p	2	2	931.8353	1	1.105242e+03	1.349609e+02
sub_02	B2	39	perroquet	chansonnette	filler	no_accent	VOT	b_p	2	2	1044.1403	1	1.040367e+03	2.070039e+02
sub_02	B2	40	pendentif	canapé	filler	accent	nasalization	@_a	1	1	1280.0346	1	3.828008e+02	1.805234e+02
sub_02	B3	1	potiron	pesanteur	test	no_accent	rounding	2_o	2	0	2000.0705	0	1.050996e+03	1.265352e+02
sub_02	B3	2	coqueluche	confiture	test	no_accent	nasalization	X_O	1	1	1078.1092	1	3.862578e+02	1.604727e+02
sub_02	B3	3	soupirant	pesanteur	filler	no_accent	rounding	y_u	1	1	1111.3507	1	4.102812e+02	1.886953e+02
sub_02	B3	4	confiture	coqueluche	test	accent	nasalization	X_O	2	2	1460.1129	1	1.054707e+03	2.159180e+02
sub_02	B3	5	ralenti	bâtiment	filler	no_accent	nasalization	@_a	1	1	1438.2964	1	3.944297e+02	2.032344e+02
sub_02	B3	6	seigneurie	bibelot	filler	no_accent	nasalization	5_E	2	2	1213.0883	1	1.075988e+03	1.807812e+02
sub_02	B3	7	lavabo	betterave	filler	no_accent	nasalization	@_a	2	2	1100.9041	1	1.052738e+03	1.559844e+02
sub_02	B3	8	ceinturon	passerelle	filler	accent	nasalization	5_E	1	1	1302.7545	1	3.907148e+02	1.961211e+02
sub_02	B3	9	chandeleur	châtiment	test	accent	nasalization	@_a	2	2	1302.9515	1	1.051508e+03	1.846953e+02
sub_02	B3	10	chapelet	champignon	test	no_accent	nasalization	@_a	2	2	1066.9627	1	1.101016e+03	1.708711e+02
sub_02	B3	11	champignon	chapelet	test	accent	nasalization	@_a	1	1	1055.8565	1	3.991406e+02	2.042930e+02
sub_02	B3	12	betterave	lavabo	filler	accent	VOT	b_p	2	2	1100.3058	1	1.048281e+03	1.918945e+02
sub_02	B3	13	pourriture	supérette	filler	no_accent	VOT	b_p	2	2	706.4981	1	1.037883e+03	1.973516e+02
sub_02	B3	14	boucherie	coqueluche	filler	accent	VOT	b_p	2	2	1222.4666	1	1.060906e+03	2.263164e+02
sub_02	B3	15	laverie	lendemain	test	no_accent	nasalization	@_a	1	1	1598.7302	1	4.045703e+02	2.087188e+02
sub_02	B3	16	randonnée	pèlerin	filler	accent	nasalization	@_a	1	1	1066.7706	1	3.887461e+02	1.500742e+02
sub_02	B3	17	châtiment	chandeleur	test	no_accent	nasalization	@_a	1	1	830.902	1	3.709180e+02	2.075195e+02
sub_02	B3	18	canapé	gâterie	test	no_accent	VOT	g_k	1	1	1054.2318	1	4.095391e+02	2.050352e+02
sub_02	B3	19	lampadaire	pâturage	filler	accent	nasalization	@_a	2	2	1674.3139	1	1.101758e+03	1.379336e+02
sub_02	B3	20	passerelle	pendentif	test	no_accent	nasalization	@_a	1	1	1100.4389	1	4.013711e+02	1.975781e+02
sub_02	B3	21	baratin	palissade	test	accent	VOT	b_p	2	2	1272.8313	1	1.089129e+03	2.278008e+02
sub_02	B3	22	penderie	paperasse	test	accent	nasalization	@_a	1	1	1166.6645	1	3.716602e+02	2.186328e+02
sub_02	B3	23	pâturage	baluchon	test	no_accent	VOT	b_p	2	2	1076.9964	1	1.086645e+03	2.047773e+02
sub_02	B3	24	baisemain	perroquet	test	accent	VOT	b_p	1	0	2000.0561	0	4.011133e+02	2.166602e+02
sub_02	B3	25	pendentif	canapé	filler	accent	nasalization	@_a	1	1	1212.4149	1	3.850312e+02	1.465898e+02
sub_02	B3	26	pissenlit	bibelot	test	no_accent	VOT	b_p	2	2	998.967	1	1.080703e+03	2.153750e+02
sub_02	B3	27	palissade	baratin	test	no_accent	VOT	b_p	2	2	1246.6213	1	1.066105e+03	2.220586e+02
sub_02	B3	28	baluchon	pâturage	test	accent	VOT	b_p	1	1	1572.8289	1	3.916875e+02	1.941211e+02
sub_02	B3	29	chansonnette	perroquet	filler	accent	nasalization	@_a	2	2	977.3308	1	1.059422e+03	2.248320e+02
sub_02	B3	30	paperasse	champignon	filler	no_accent	nasalization	@_a	2	2	1224.3159	1	1.067590e+03	1.676406e+02
sub_02	B3	31	supérette	soupirant	test	accent	rounding	y_u	2	2	964.0161	1	1.069820e+03	2.015781e+02
sub_02	B3	32	gâterie	canapé	test	accent	VOT	g_k	2	2	1627.4527	1	1.048055e+03	1.956367e+02
sub_02	B3	33	pèlerin	randonnée	filler	no_accent	VOT	b_p	1	1	807.8555	1	4.214258e+02	1.815234e+02
sub_02	B3	34	patelin	chandeleur	filler	no_accent	VOT	b_p	1	1	999.4767	1	3.969141e+02	1.787539e+02
sub_02	B3	35	chapiteau	chansonnette	test	no_accent	nasalization	@_a	2	2	1033.0157	1	1.050023e+03	2.067500e+02
sub_02	B3	36	lendemain	palissade	filler	accent	nasalization	@_a	2	2	842.028	1	1.089129e+03	1.896953e+02
sub_02	B3	37	pesanteur	potiron	test	accent	rounding	2_o	2	2	918.4128	1	1.082445e+03	1.857227e+02
sub_02	B3	38	perroquet	baisemain	test	no_accent	VOT	b_p	2	2	841.4749	1	1.075020e+03	1.978359e+02
sub_02	B3	39	bibelot	seigneurie	filler	accent	VOT	b_p	2	2	1593.8744	1	1.076988e+03	2.037500e+02
sub_02	B3	40	bâtiment	patelin	test	accent	VOT	b_p	1	1	1382.3906	1	4.087969e+02	1.956367e+02
sub_02	B4	1	soupirant	supérette	test	no_accent	rounding	y_u	1	1	1314.3003	1	4.080547e+02	1.986094e+02
sub_02	B4	2	châtiment	baratin	filler	no_accent	nasalization	@_a	1	0	2000.0562	0	3.691758e+02	2.018047e+02
sub_02	B4	3	seigneurie	ceinturon	test	no_accent	nasalization	5_E	2	2	976.8801	1	1.065363e+03	1.659297e+02
sub_02	B4	4	coqueluche	boucherie	filler	no_accent	nasalization	X_O	2	2	965.6884	1	1.063137e+03	2.005508e+02
sub_02	B4	5	pourriture	boucherie	test	no_accent	VOT	b_p	2	2	965.5178	1	1.037883e+03	1.414180e+02
sub_02	B4	6	ralenti	randonnée	test	no_accent	nasalization	@_a	1	1	1798.0961	1	3.738906e+02	1.678984e+02
sub_02	B4	7	chandeleur	patelin	filler	accent	nasalization	@_a	1	1	1246.7527	1	4.196797e+02	1.557578e+02
sub_02	B4	8	pendentif	passerelle	test	accent	nasalization	@_a	2	2	1229.1723	1	1.037141e+03	1.800391e+02
sub_02	B4	9	pissenlit	confiture	filler	no_accent	VOT	b_p	1	1	943.4936	1	3.847734e+02	1.748125e+02
sub_02	B4	10	lampadaire	lavabo	test	accent	nasalization	@_a	1	1	1335.275	1	3.687188e+02	2.245742e+02
sub_02	B4	11	chapelet	baluchon	filler	no_accent	nasalization	@_a	1	1	1066.6586	1	3.842891e+02	2.042930e+02
sub_02	B4	12	canapé	pendentif	filler	no_accent	VOT	g_k	1	1	1663.1483	1	3.634922e+02	1.389609e+02
sub_02	B4	13	champignon	paperasse	filler	accent	nasalization	@_a	1	1	1026.4901	1	3.936875e+02	2.203750e+02
sub_02	B4	14	supérette	pourriture	filler	accent	rounding	y_u	1	1	1415.3124	1	3.674336e+02	1.473008e+02
sub_02	B4	15	betterave	pèlerin	test	accent	VOT	b_p	1	1	1134.2555	1	3.620078e+02	1.748125e+02
sub_02	B4	16	baratin	châtiment	filler	accent	VOT	b_p	2	2	1494.5972	1	1.050023e+03	1.706406e+02
sub_02	B4	17	passerelle	ceinturon	filler	no_accent	nasalization	@_a	2	2	1054.3595	1	1.018344e+03	2.246016e+02
sub_02	B4	18	palissade	lendemain	filler	no_accent	VOT	b_p	1	1	1528.2408	1	3.399219e+02	2.020625e+02
sub_02	B4	19	pâturage	lampadaire	filler	no_accent	VOT	b_p	2	2	1134.8143	1	1.053480e+03	1.797812e+02
sub_02	B4	20	baisemain	laverie	filler	accent	VOT	b_p	2	2	1122.8073	1	1.070562e+03	1.537305e+02
sub_02	B4	21	confiture	pissenlit	filler	accent	nasalization	X_O	2	0	2000.0262	0	1.044340e+03	2.446289e+02
sub_02	B4	22	baluchon	chapelet	filler	accent	VOT	b_p	1	1	1848.2152	1	4.097695e+02	1.419023e+02
sub_02	B4	23	pèlerin	betterave	test	no_accent	VOT	b_p	1	1	1021.6742	1	4.102812e+02	2.112344e+02
sub_02	B4	24	paperasse	penderie	test	no_accent	nasalization	@_a	2	2	1112.2386	1	1.089129e+03	1.859805e+02
sub_02	B4	25	chansonnette	chapiteau	test	accent	nasalization	@_a	2	2	1888.1583	1	1.108184e+03	1.453906e+02
sub_02	B4	26	perroquet	chansonnette	filler	no_accent	VOT	b_p	2	2	880.1507	1	1.097301e+03	1.859805e+02
sub_02	B4	27	patelin	bâtiment	test	no_accent	VOT	b_p	1	1	1415.3416	1	3.981406e+02	1.881797e+02
sub_02	B4	28	randonnée	ralenti	test	accent	nasalization	@_a	1	1	1944.6588	1	3.580352e+02	2.104336e+02
sub_02	B4	29	lavabo	lampadaire	test	no_accent	nasalization	@_a	1	1	1167.833	1	4.065703e+02	2.065195e+02
sub_02	B4	30	gâterie	potiron	filler	accent	VOT	g_k	1	1	1122.2014	1	3.706602e+02	2.154336e+02
sub_02	B4	31	bibelot	pissenlit	test	accent	VOT	b_p	2	2	987.6739	1	1.041367e+03	2.126914e+02
sub_02	B4	32	pesanteur	soupirant	filler	accent	rounding	2_o	1	1	1359.6966	1	3.842891e+02	1.532734e+02
sub_02	B4	33	penderie	chapiteau	filler	accent	nasalization	@_a	2	2	1104.2465	1	1.041109e+03	2.142031e+02
sub_02	B4	34	lendemain	laverie	test	accent	nasalization	@_a	1	0	2000.0671	0	4.340508e+02	2.027188e+02
sub_02	B4	35	chapiteau	penderie	filler	no_accent	nasalization	@_a	2	2	1371.2765	1	1.050250e+03	1.966094e+02
sub_02	B4	36	boucherie	pourriture	test	accent	VOT	b_p	1	1	1224.6467	1	4.005977e+02	2.132031e+02
sub_02	B4	37	laverie	baisemain	filler	no_accent	nasalization	@_a	2	2	1026.7714	1	1.078504e+03	1.844961e+02
sub_02	B4	38	bâtiment	ralenti	filler	accent	VOT	b_p	1	1	931.8149	1	3.738906e+02	1.406445e+02
sub_02	B4	39	ceinturon	seigneurie	test	accent	nasalization	5_E	2	2	1133.2564	1	1.066848e+03	1.755820e+02
sub_02	B4	40	potiron	gâterie	filler	no_accent	rounding	2_o	1	1	1617.9322	1	3.949141e+02	1.970938e+02
